v 20121123 2
C 58400 52600 1 180 0 ATmega644P.sym
{
T 57750 52750 5 10 1 1 180 6 1
refdes=U1
T 58000 43800 5 10 0 0 180 0 1
device=ATMEGA164P
T 58000 43600 5 10 0 0 180 0 1
footprint=DIP40
}
C 48500 48500 1 0 0 SN75161B.sym
{
T 50300 53100 5 10 1 1 0 6 1
refdes=U2
T 48900 53300 5 10 0 0 0 0 1
device=SN75161B
T 48900 53500 5 10 0 0 0 0 1
footprint=DIP20
}
C 48500 42900 1 0 0 SN75ALS160.sym
{
T 50300 47500 5 10 1 1 0 6 1
refdes=U3
T 48900 47700 5 10 0 0 0 0 1
device=SN75ALS160
T 48900 47900 5 10 0 0 0 0 1
footprint=DIP20
}
U 51300 53300 51300 49600 10 -1
N 50600 52200 51100 52200 4
{
T 51400 52200 5 10 1 1 0 0 1
netname=T_REN
}
C 51100 52200 1 0 0 busripper-1.sym
{
T 51100 52600 5 8 0 0 0 0 1
device=none
}
N 50600 51800 51100 51800 4
{
T 51400 51800 5 10 1 1 0 0 1
netname=T_IFC
}
C 51100 51800 1 0 0 busripper-1.sym
{
T 51100 52200 5 8 0 0 0 0 1
device=none
}
N 50600 51400 51100 51400 4
{
T 51400 51400 5 10 1 1 0 0 1
netname=T_NDAC
}
C 51100 51400 1 0 0 busripper-1.sym
{
T 51100 51800 5 8 0 0 0 0 1
device=none
}
N 50600 51000 51100 51000 4
{
T 51400 51000 5 10 1 1 0 0 1
netname=T_NFRD
}
C 51100 51000 1 0 0 busripper-1.sym
{
T 51100 51400 5 8 0 0 0 0 1
device=none
}
N 50600 50600 51100 50600 4
{
T 51400 50600 5 10 1 1 0 0 1
netname=T_DAV
}
C 51100 50600 1 0 0 busripper-1.sym
{
T 51100 51000 5 8 0 0 0 0 1
device=none
}
N 50600 50200 51100 50200 4
{
T 51400 50200 5 10 1 1 0 0 1
netname=T_EOI
}
C 51100 50200 1 0 0 busripper-1.sym
{
T 51100 50600 5 8 0 0 0 0 1
device=none
}
N 50600 49800 51100 49800 4
{
T 51400 49800 5 10 1 1 0 0 1
netname=T_ATN
}
C 51100 49800 1 0 0 busripper-1.sym
{
T 51100 50200 5 8 0 0 0 0 1
device=none
}
N 50600 49400 51100 49400 4
{
T 51400 49400 5 10 1 1 0 0 1
netname=T_SRQ
}
C 51100 49400 1 0 0 busripper-1.sym
{
T 51100 49800 5 8 0 0 0 0 1
device=none
}
U 51300 53300 53500 53300 10 0
U 53500 53300 53500 49100 10 0
C 50600 52800 1 0 0 5V-plus-1.sym
C 50600 47200 1 0 0 5V-plus-1.sym
C 48200 43000 1 0 0 gnd-1.sym
C 48200 48700 1 0 0 gnd-1.sym
N 48300 49000 48600 49000 4
N 48300 43300 48300 43400 4
N 48300 43400 48600 43400 4
N 50600 47000 50800 47000 4
N 50800 47000 50800 47200 4
N 50600 52600 50800 52600 4
N 50800 52600 50800 52800 4
U 51300 46400 51300 43200 10 -1
N 50600 46600 51100 46600 4
{
T 51400 46600 5 10 1 1 0 0 1
netname=T_DATA1
}
C 51100 46600 1 270 0 busripper-1.sym
{
T 51500 46600 5 8 0 0 270 0 1
device=none
}
N 50600 46200 51100 46200 4
{
T 51400 46200 5 10 1 1 0 0 1
netname=T_DATA2
}
C 51100 46200 1 270 0 busripper-1.sym
{
T 51500 46200 5 8 0 0 270 0 1
device=none
}
N 50600 45800 51100 45800 4
{
T 51400 45800 5 10 1 1 0 0 1
netname=T_DATA3
}
C 51100 45800 1 270 0 busripper-1.sym
{
T 51500 45800 5 8 0 0 270 0 1
device=none
}
N 50600 45400 51100 45400 4
{
T 51400 45400 5 10 1 1 0 0 1
netname=T_DATA4
}
C 51100 45400 1 270 0 busripper-1.sym
{
T 51500 45400 5 8 0 0 270 0 1
device=none
}
N 50600 45000 51100 45000 4
{
T 51400 45000 5 10 1 1 0 0 1
netname=T_DATA5
}
C 51100 45000 1 270 0 busripper-1.sym
{
T 51500 45000 5 8 0 0 270 0 1
device=none
}
N 50600 44600 51100 44600 4
{
T 51400 44600 5 10 1 1 0 0 1
netname=T_DATA6
}
C 51100 44600 1 270 0 busripper-1.sym
{
T 51500 44600 5 8 0 0 270 0 1
device=none
}
N 50600 44200 51100 44200 4
{
T 51400 44200 5 10 1 1 0 0 1
netname=T_DATA7
}
C 51100 44200 1 270 0 busripper-1.sym
{
T 51500 44200 5 8 0 0 270 0 1
device=none
}
N 50600 43800 51100 43800 4
{
T 51400 43800 5 10 1 1 0 0 1
netname=T_DATA8
}
C 51100 43800 1 270 0 busripper-1.sym
{
T 51500 43800 5 8 0 0 270 0 1
device=none
}
U 51300 43200 53500 43200 10 0
U 53500 43200 53500 47100 10 0
C 43600 42900 1 0 0 IEEE-488.sym
{
T 44600 53100 5 10 1 1 0 6 1
refdes=J1
T 43600 42900 5 10 0 0 0 0 1
footprint=IEEE_488
}
U 47900 49600 47900 53300 10 1
N 48600 49400 48100 49400 4
{
T 47400 49400 5 10 1 1 0 0 1
netname=SRQ
}
C 48100 49400 1 90 0 busripper-1.sym
{
T 47700 49400 5 8 0 0 90 0 1
device=none
}
N 48600 49800 48100 49800 4
{
T 47400 49800 5 10 1 1 0 0 1
netname=ATN
}
C 48100 49800 1 90 0 busripper-1.sym
{
T 47700 49800 5 8 0 0 90 0 1
device=none
}
N 48600 50200 48100 50200 4
{
T 47400 50200 5 10 1 1 0 0 1
netname=EOI
}
C 48100 50200 1 90 0 busripper-1.sym
{
T 47700 50200 5 8 0 0 90 0 1
device=none
}
N 48600 50600 48100 50600 4
{
T 47400 50600 5 10 1 1 0 0 1
netname=DAV
}
C 48100 50600 1 90 0 busripper-1.sym
{
T 47700 50600 5 8 0 0 90 0 1
device=none
}
N 48600 51000 48100 51000 4
{
T 47300 51000 5 10 1 1 0 0 1
netname=NFRD
}
C 48100 51000 1 90 0 busripper-1.sym
{
T 47700 51000 5 8 0 0 90 0 1
device=none
}
N 48600 51400 48100 51400 4
{
T 47300 51400 5 10 1 1 0 0 1
netname=NDAC
}
C 48100 51400 1 90 0 busripper-1.sym
{
T 47700 51400 5 8 0 0 90 0 1
device=none
}
N 48600 51800 48100 51800 4
{
T 47500 51800 5 10 1 1 0 0 1
netname=IFC
}
C 48100 51800 1 90 0 busripper-1.sym
{
T 47700 51800 5 8 0 0 90 0 1
device=none
}
N 48600 52200 48100 52200 4
{
T 47400 52200 5 10 1 1 0 0 1
netname=REN
}
C 48100 52200 1 90 0 busripper-1.sym
{
T 47700 52200 5 8 0 0 90 0 1
device=none
}
U 47900 53300 45500 53300 10 0
U 45500 53300 45500 46400 10 1
N 44900 51000 45300 51000 4
{
T 46000 51000 5 10 1 1 0 0 1
netname=EOI
}
C 45300 51000 1 0 0 busripper-1.sym
{
T 45300 51400 5 8 0 0 0 0 1
device=none
}
U 47900 46400 47900 43200 10 -1
N 48600 46600 48100 46600 4
{
T 47200 46600 5 10 1 1 0 0 1
netname=DATA1
}
C 48100 46600 1 180 0 busripper-1.sym
{
T 48100 46200 5 8 0 0 180 0 1
device=none
}
N 48600 46200 48100 46200 4
{
T 47200 46200 5 10 1 1 0 0 1
netname=DATA2
}
C 48100 46200 1 180 0 busripper-1.sym
{
T 48100 45800 5 8 0 0 180 0 1
device=none
}
N 48600 45800 48100 45800 4
{
T 47200 45800 5 10 1 1 0 0 1
netname=DATA3
}
C 48100 45800 1 180 0 busripper-1.sym
{
T 48100 45400 5 8 0 0 180 0 1
device=none
}
N 48600 45400 48100 45400 4
{
T 47200 45400 5 10 1 1 0 0 1
netname=DATA4
}
C 48100 45400 1 180 0 busripper-1.sym
{
T 48100 45000 5 8 0 0 180 0 1
device=none
}
N 48600 45000 48100 45000 4
{
T 47200 45000 5 10 1 1 0 0 1
netname=DATA5
}
C 48100 45000 1 180 0 busripper-1.sym
{
T 48100 44600 5 8 0 0 180 0 1
device=none
}
N 48600 44600 48100 44600 4
{
T 47200 44600 5 10 1 1 0 0 1
netname=DATA6
}
C 48100 44600 1 180 0 busripper-1.sym
{
T 48100 44200 5 8 0 0 180 0 1
device=none
}
N 48600 44200 48100 44200 4
{
T 47200 44200 5 10 1 1 0 0 1
netname=DATA7
}
C 48100 44200 1 180 0 busripper-1.sym
{
T 48100 43800 5 8 0 0 180 0 1
device=none
}
N 48600 43800 48100 43800 4
{
T 47200 43800 5 10 1 1 0 0 1
netname=DATA8
}
C 48100 43800 1 180 0 busripper-1.sym
{
T 48100 43400 5 8 0 0 180 0 1
device=none
}
U 47900 43200 45900 43200 10 0
U 45900 43200 45900 52400 10 -1
N 44900 52600 45700 52600 4
{
T 46000 52600 5 10 1 1 0 0 1
netname=DATA1
}
C 45700 52600 1 270 0 busripper-1.sym
{
T 46100 52600 5 8 0 0 270 0 1
device=none
}
N 44900 52200 45700 52200 4
{
T 46000 52200 5 10 1 1 0 0 1
netname=DATA2
}
C 45700 52200 1 270 0 busripper-1.sym
{
T 46100 52200 5 8 0 0 270 0 1
device=none
}
N 44900 51800 45700 51800 4
{
T 46000 51800 5 10 1 1 0 0 1
netname=DATA3
}
C 45700 51800 1 270 0 busripper-1.sym
{
T 46100 51800 5 8 0 0 270 0 1
device=none
}
N 44900 51400 45700 51400 4
{
T 46000 51400 5 10 1 1 0 0 1
netname=DATA4
}
C 45700 51400 1 270 0 busripper-1.sym
{
T 46100 51400 5 8 0 0 270 0 1
device=none
}
N 44900 47800 45700 47800 4
{
T 46000 47800 5 10 1 1 0 0 1
netname=DATA5
}
C 45700 47800 1 270 0 busripper-1.sym
{
T 46100 47800 5 8 0 0 270 0 1
device=none
}
N 44900 47400 45700 47400 4
{
T 46000 47400 5 10 1 1 0 0 1
netname=DATA6
}
C 45700 47400 1 270 0 busripper-1.sym
{
T 46100 47400 5 8 0 0 270 0 1
device=none
}
N 44900 47000 45700 47000 4
{
T 46000 47000 5 10 1 1 0 0 1
netname=DATA7
}
C 45700 47000 1 270 0 busripper-1.sym
{
T 46100 47000 5 8 0 0 270 0 1
device=none
}
N 44900 46600 45700 46600 4
{
T 46000 46600 5 10 1 1 0 0 1
netname=DATA8
}
C 45700 46600 1 270 0 busripper-1.sym
{
T 46100 46600 5 8 0 0 270 0 1
device=none
}
N 44900 50600 45300 50600 4
{
T 46000 50600 5 10 1 1 0 0 1
netname=DAV
}
C 45300 50600 1 0 0 busripper-1.sym
{
T 45300 51000 5 8 0 0 0 0 1
device=none
}
N 44900 50200 45300 50200 4
{
T 46000 50200 5 10 1 1 0 0 1
netname=NFRD
}
C 45300 50200 1 0 0 busripper-1.sym
{
T 45300 50600 5 8 0 0 0 0 1
device=none
}
N 44900 49800 45300 49800 4
{
T 46000 49800 5 10 1 1 0 0 1
netname=NDAC
}
C 45300 49800 1 0 0 busripper-1.sym
{
T 45300 50200 5 8 0 0 0 0 1
device=none
}
N 44900 49400 45300 49400 4
{
T 46000 49400 5 10 1 1 0 0 1
netname=IFC
}
C 45300 49400 1 0 0 busripper-1.sym
{
T 45300 49800 5 8 0 0 0 0 1
device=none
}
N 44900 49000 45300 49000 4
{
T 46000 49000 5 10 1 1 0 0 1
netname=SRQ
}
C 45300 49000 1 0 0 busripper-1.sym
{
T 45300 49400 5 8 0 0 0 0 1
device=none
}
N 44900 48600 45300 48600 4
{
T 46000 48600 5 10 1 1 0 0 1
netname=ATN
}
C 45300 48600 1 0 0 busripper-1.sym
{
T 45300 49000 5 8 0 0 0 0 1
device=none
}
N 44900 46200 45300 46200 4
{
T 46000 46200 5 10 1 1 0 0 1
netname=REN
}
C 45300 46200 1 0 0 busripper-1.sym
{
T 45300 46600 5 8 0 0 0 0 1
device=none
}
C 45000 43000 1 0 0 gnd-1.sym
N 45100 43300 45100 45800 4
N 45100 45800 44900 45800 4
N 44900 45400 45100 45400 4
N 44900 45000 45100 45000 4
N 44900 44600 45100 44600 4
N 44900 44200 45100 44200 4
N 44900 43800 45100 43800 4
N 44900 43400 45100 43400 4
N 44900 48200 45900 48200 4
T 45900 42900 9 10 1 0 0 0 1
GPIB Data Bus
T 51300 42900 9 10 1 0 0 0 1
Terminal Data Bus
T 45500 53400 9 10 1 0 0 0 1
GPIB Control Bus
T 51300 53400 9 10 1 0 0 0 1
Terminal Control Bus
U 52400 43500 59000 43500 10 1
U 59000 43500 59000 45900 10 -1
U 52400 43500 52400 48800 10 -1
U 52400 48100 46900 48100 10 1
U 46900 52400 46900 48100 10 -1
N 48600 52600 47100 52600 4
{
T 46900 52700 5 10 1 1 0 0 1
netname=TE_CTRL
}
C 47100 52600 1 180 0 busripper-1.sym
{
T 47100 52200 5 8 0 0 180 0 1
device=none
}
N 50600 49000 52200 49000 4
{
T 50600 48700 5 10 1 1 0 0 1
netname=DC_CTRL
}
C 52200 49000 1 270 0 busripper-1.sym
{
T 52600 49000 5 8 0 0 270 0 1
device=none
}
N 48600 47000 48600 47900 4
{
T 47700 47200 5 10 1 1 0 0 1
netname=TE_DATA
}
C 48600 47900 1 0 0 busripper-1.sym
{
T 48600 48300 5 8 0 0 0 0 1
device=none
}
N 50850 43400 50850 42600 4
N 50850 42600 54000 42600 4
N 54000 42600 54000 43300 4
C 54000 43300 1 0 0 busripper-1.sym
{
T 54000 43700 5 8 0 0 0 0 1
device=none
}
N 50850 43400 50600 43400 4
{
T 50900 42300 5 10 1 1 0 0 1
netname=PE_DATA
}
T 43900 54100 9 48 1 0 0 0 1
CBM/BlueLink
T 58250 42850 9 16 1 0 0 0 1
Revision 1.1 ©2013 Darryl Sokoloski <darryl@sokoloski.ca>
C 61000 48750 1 90 0 crystal-1.sym
{
T 60500 48950 5 10 0 0 90 0 1
device=CRYSTAL
T 61100 49600 5 10 1 1 0 0 1
refdes=U4
T 60300 48950 5 10 0 0 90 0 1
symversion=0.1
T 60500 48450 5 10 1 1 0 0 1
value=9.216 MHz
T 61000 48750 5 10 0 0 180 0 1
footprint=MY_HC49
}
C 61350 49050 1 0 0 capacitor-1.sym
{
T 61550 49750 5 10 0 0 0 0 1
device=CAPACITOR
T 61400 49350 5 10 1 1 0 0 1
refdes=C1
T 61550 49950 5 10 0 0 0 0 1
symversion=0.1
T 61950 49300 5 10 1 1 0 0 1
value=18 pF
T 61350 49050 5 10 0 0 0 0 1
footprint=0603
}
C 61350 48650 1 0 0 capacitor-1.sym
{
T 61550 49350 5 10 0 0 0 0 1
device=CAPACITOR
T 61400 48950 5 10 1 1 0 0 1
refdes=C2
T 61550 49550 5 10 0 0 0 0 1
symversion=0.1
T 61950 48900 5 10 1 1 0 0 1
value=18 pF
T 61350 48650 5 10 0 0 0 0 1
footprint=0603
}
C 62550 49150 1 90 0 gnd-1.sym
C 62550 48750 1 90 0 gnd-1.sym
N 58300 49300 60500 49300 4
N 58300 48900 60450 48900 4
N 60450 48650 60450 48900 4
N 60450 48650 61350 48650 4
N 61350 48650 61350 48850 4
N 61350 49250 61300 49250 4
N 61300 49250 61300 49500 4
C 63750 45600 1 90 0 capacitor-1.sym
{
T 63050 45800 5 10 0 0 90 0 1
device=CAPACITOR
T 63250 46200 5 10 1 1 0 0 1
refdes=C4
T 62850 45800 5 10 0 0 90 0 1
symversion=0.1
T 64050 45900 5 10 1 1 180 0 1
value=0.1uF
T 63750 45600 5 10 0 0 0 0 1
footprint=0603
}
N 60500 49300 60500 49500 4
N 60500 49500 61300 49500 4
C 64350 45600 1 90 0 capacitor-1.sym
{
T 63650 45800 5 10 0 0 90 0 1
device=CAPACITOR
T 63850 46200 5 10 1 1 0 0 1
refdes=C5
T 63450 45800 5 10 0 0 90 0 1
symversion=0.1
T 64650 45900 5 10 1 1 180 0 1
value=0.1uF
T 64350 45600 5 10 0 0 0 0 1
footprint=0603
}
C 65550 45600 1 90 0 capacitor-1.sym
{
T 64850 45800 5 10 0 0 90 0 1
device=CAPACITOR
T 65050 46200 5 10 1 1 0 0 1
refdes=C7
T 64650 45800 5 10 0 0 90 0 1
symversion=0.1
T 65850 45900 5 10 1 1 180 0 1
value=0.1uF
T 65550 45600 5 10 0 0 0 0 1
footprint=0603
}
N 65350 45350 65350 45600 4
N 64150 45600 64150 45350 4
N 65350 46500 65350 46650 4
N 64150 46500 64150 46650 4
N 63550 46500 63550 46650 4
C 65250 45050 1 0 0 gnd-1.sym
C 62950 46650 1 0 0 5V-plus-1.sym
T 63500 46850 9 10 1 0 0 0 1
Decoupling
T 60450 49600 9 10 1 0 0 0 1
Crystal
C 58600 48400 1 90 0 gnd-1.sym
C 64950 45600 1 90 0 capacitor-1.sym
{
T 64250 45800 5 10 0 0 90 0 1
device=CAPACITOR
T 64450 46200 5 10 1 1 0 0 1
refdes=C6
T 64050 45800 5 10 0 0 90 0 1
symversion=0.1
T 65250 45900 5 10 1 1 180 0 1
value=0.1uF
T 64950 45600 5 10 0 0 0 0 1
footprint=0603
}
N 64750 46500 64750 46650 4
N 64750 45600 64750 45350 4
C 53900 48200 1 270 0 gnd-1.sym
N 60900 48750 60950 48650 4
N 60900 49450 60950 49500 4
C 61350 45200 1 0 0 TTL-232R-5V.sym
{
T 62700 47900 5 10 1 1 0 6 1
refdes=J2
T 61750 48400 5 10 0 0 0 0 1
device=TTL-232R-5V
T 61750 48600 5 10 0 0 0 0 1
footprint=JUMPER6
}
C 61150 47800 1 270 0 gnd-1.sym
C 59600 47600 1 0 0 resistor-1.sym
{
T 59900 48000 5 10 0 0 0 0 1
device=RESISTOR
T 60400 47500 5 10 1 1 0 0 1
refdes=R1
T 60200 47900 5 10 1 1 0 0 1
value=10.5k
T 59600 47600 5 10 0 0 0 0 1
footprint=0603
}
C 60350 45100 1 0 0 switch-spst-1.sym
{
T 60750 45800 5 10 0 0 0 0 1
device=SPST
T 60600 44900 5 10 1 1 0 0 1
refdes=J3
T 60350 45100 5 10 0 0 270 0 1
footprint=SW__Panasonic_EVQPA_Series
}
C 61100 44800 1 0 0 gnd-1.sym
C 54200 48300 1 90 0 5V-plus-1.sym
C 58300 48300 1 270 0 5V-plus-1.sym
C 60500 47900 1 270 0 5V-plus-1.sym
C 60950 46800 1 0 0 nc-left-1.sym
{
T 60950 47200 5 10 0 0 0 0 1
value=NoConnection
T 60950 47600 5 10 0 0 0 0 1
device=DRC_Directive
}
U 60150 45300 60150 46700 10 1
U 60150 46700 59000 46700 10 0
U 59000 46700 59000 49900 10 1
N 58300 47700 59600 47700 4
{
T 59150 47900 5 10 1 1 0 0 1
netname=RESET
}
C 59200 47700 1 90 0 busripper-1.sym
{
T 58800 47700 5 8 0 0 90 0 1
device=none
}
N 61450 46100 60350 46100 4
{
T 60450 46150 5 10 1 1 0 0 1
netname=TXD0
}
C 60350 46100 1 90 0 busripper-1.sym
{
T 59950 46100 5 8 0 0 90 0 1
device=none
}
N 61450 46500 60350 46500 4
{
T 60450 46550 5 10 1 1 0 0 1
netname=RXD0
}
C 60350 46500 1 90 0 busripper-1.sym
{
T 59950 46500 5 8 0 0 90 0 1
device=none
}
C 60350 45100 1 90 0 busripper-1.sym
{
T 59950 45100 5 8 0 0 90 0 1
device=none
}
N 58300 49700 58800 49700 4
{
T 59100 49700 5 10 1 1 0 0 1
netname=RXD0
}
C 58800 49700 1 270 0 busripper-1.sym
{
T 59200 49700 5 8 0 0 270 0 1
device=none
}
N 58300 50100 58800 50100 4
{
T 59100 50100 5 10 1 1 0 0 1
netname=TXD0
}
C 58800 50100 1 270 0 busripper-1.sym
{
T 59200 50100 5 8 0 0 270 0 1
device=none
}
N 63550 45350 65350 45350 4
N 63550 45350 63550 45600 4
N 63150 46650 65350 46650 4
N 60400 53000 59000 53000 4
N 59000 53000 59000 50900 4
N 59000 50900 58300 50900 4
N 60400 52600 59500 52600 4
N 59500 52600 59500 50500 4
N 59500 50500 58300 50500 4
C 60100 51100 1 270 0 gnd-1.sym
C 60400 51200 1 90 0 5V-plus-1.sym
C 53700 47600 1 0 0 nc-left-1.sym
{
T 53700 48000 5 10 0 0 0 0 1
value=NoConnection
T 53700 48400 5 10 0 0 0 0 1
device=DRC_Directive
}
C 58800 47000 1 180 0 nc-left-1.sym
{
T 58800 46600 5 10 0 0 180 0 1
value=NoConnection
T 58800 46200 5 10 0 0 180 0 1
device=DRC_Directive
}
C 58800 51400 1 180 0 nc-left-1.sym
{
T 58800 51000 5 10 0 0 180 0 1
value=NoConnection
T 58800 50600 5 10 0 0 180 0 1
device=DRC_Directive
}
C 58800 51800 1 180 0 nc-left-1.sym
{
T 58800 51400 5 10 0 0 180 0 1
value=NoConnection
T 58800 51000 5 10 0 0 180 0 1
device=DRC_Directive
}
C 53700 51700 1 90 0 busripper-1.sym
{
T 53300 51700 5 8 0 0 90 0 1
device=none
}
N 54200 51700 53700 51700 4
{
T 53400 51900 5 10 1 1 180 0 1
netname=T_REN
}
C 53700 51300 1 90 0 busripper-1.sym
{
T 53300 51300 5 8 0 0 90 0 1
device=none
}
N 54200 51300 53700 51300 4
{
T 53400 51500 5 10 1 1 180 0 1
netname=T_IFC
}
C 53700 50900 1 90 0 busripper-1.sym
{
T 53300 50900 5 8 0 0 90 0 1
device=none
}
N 54200 50900 53700 50900 4
{
T 53400 51100 5 10 1 1 180 0 1
netname=T_NDAC
}
N 54200 50500 53700 50500 4
{
T 53400 50700 5 10 1 1 180 0 1
netname=T_NFRD
}
C 53700 50500 1 90 0 busripper-1.sym
{
T 53300 50500 5 8 0 0 90 0 1
device=none
}
C 53700 50100 1 90 0 busripper-1.sym
{
T 53300 50100 5 8 0 0 90 0 1
device=none
}
N 54200 50100 53700 50100 4
{
T 53400 50300 5 10 1 1 180 0 1
netname=T_DAV
}
C 53700 49700 1 90 0 busripper-1.sym
{
T 53300 49700 5 8 0 0 90 0 1
device=none
}
N 54200 49700 53700 49700 4
{
T 53400 49900 5 10 1 1 180 0 1
netname=T_EOI
}
C 53700 49300 1 90 0 busripper-1.sym
{
T 53300 49300 5 8 0 0 90 0 1
device=none
}
N 54200 49300 53700 49300 4
{
T 53400 49500 5 10 1 1 180 0 1
netname=T_ATN
}
C 53700 48900 1 90 0 busripper-1.sym
{
T 53300 48900 5 8 0 0 90 0 1
device=none
}
N 54200 48900 53700 48900 4
{
T 53400 49100 5 10 1 1 180 0 1
netname=T_SRQ
}
N 54200 44500 53700 44500 4
{
T 53400 44700 5 10 1 1 180 0 1
netname=T_DATA8
}
C 53700 44500 1 180 0 busripper-1.sym
{
T 53700 44100 5 8 0 0 180 0 1
device=none
}
N 54200 44900 53700 44900 4
{
T 53400 45100 5 10 1 1 180 0 1
netname=T_DATA7
}
C 53700 44900 1 180 0 busripper-1.sym
{
T 53700 44500 5 8 0 0 180 0 1
device=none
}
N 54200 45300 53700 45300 4
{
T 53400 45500 5 10 1 1 180 0 1
netname=T_DATA6
}
C 53700 45300 1 180 0 busripper-1.sym
{
T 53700 44900 5 8 0 0 180 0 1
device=none
}
N 54200 45700 53700 45700 4
{
T 53400 45900 5 10 1 1 180 0 1
netname=T_DATA5
}
C 53700 45700 1 180 0 busripper-1.sym
{
T 53700 45300 5 8 0 0 180 0 1
device=none
}
C 53700 46100 1 180 0 busripper-1.sym
{
T 53700 45700 5 8 0 0 180 0 1
device=none
}
N 54200 46100 53700 46100 4
{
T 53400 46300 5 10 1 1 180 0 1
netname=T_DATA4
}
N 54200 46500 53700 46500 4
{
T 53400 46700 5 10 1 1 180 0 1
netname=T_DATA3
}
C 53700 46500 1 180 0 busripper-1.sym
{
T 53700 46100 5 8 0 0 180 0 1
device=none
}
N 54200 46900 53700 46900 4
{
T 53400 47100 5 10 1 1 180 0 1
netname=T_DATA2
}
C 53700 46900 1 180 0 busripper-1.sym
{
T 53700 46500 5 8 0 0 180 0 1
device=none
}
N 54200 47300 53700 47300 4
{
T 53400 47500 5 10 1 1 180 0 1
netname=T_DATA1
}
C 53700 47300 1 180 0 busripper-1.sym
{
T 53700 46900 5 8 0 0 180 0 1
device=none
}
C 60300 53700 1 270 0 RN-41.sym
{
T 66000 50700 5 10 1 1 270 6 1
refdes=RN41
T 66200 53300 5 10 0 0 270 0 1
device=RN-41
T 66400 53300 5 10 0 0 270 0 1
footprint=RN-41
}
C 61200 53900 1 180 0 gnd-1.sym
C 59100 43800 1 0 0 led-1.sym
{
T 59900 44400 5 10 0 0 0 0 1
device=LED
T 59900 44200 5 10 1 1 0 0 1
refdes=LED1
T 59900 44600 5 10 0 0 0 0 1
symversion=0.1
T 59100 43800 5 10 0 0 0 0 1
footprint=0603
}
C 60000 43900 1 0 0 resistor-1.sym
{
T 60300 44300 5 10 0 0 0 0 1
device=RESISTOR
T 60550 44200 5 10 1 1 0 0 1
refdes=R2
T 60450 43650 5 10 1 1 0 0 1
value=140
T 60000 43900 5 10 0 0 0 0 1
footprint=0603
}
C 61200 43900 1 90 0 gnd-1.sym
N 58300 44500 58500 44500 4
N 58500 44500 58500 44000 4
N 58500 44000 59100 44000 4
C 54000 52900 1 0 0 led-1.sym
{
T 54800 53500 5 10 0 0 0 0 1
device=LED
T 54800 53300 5 10 1 1 0 0 1
refdes=LED2
T 54800 53700 5 10 0 0 0 0 1
symversion=0.1
T 54000 52900 5 10 0 0 0 0 1
footprint=0603
}
C 54900 53000 1 0 0 resistor-1.sym
{
T 55200 53400 5 10 0 0 0 0 1
device=RESISTOR
T 55450 53300 5 10 1 1 0 0 1
refdes=R3
T 55350 52750 5 10 1 1 0 0 1
value=140
T 54900 53000 5 10 0 0 0 0 1
footprint=0603
}
C 56100 53000 1 90 0 gnd-1.sym
N 54000 53100 54000 52100 4
N 54000 52100 54200 52100 4
N 58300 44900 58800 44900 4
{
T 59100 44900 5 10 1 1 0 0 1
netname=PE_DATA
}
C 58800 44900 1 270 0 busripper-1.sym
{
T 59200 44900 5 8 0 0 270 0 1
device=none
}
N 58300 45300 58800 45300 4
{
T 59100 45300 5 10 1 1 0 0 1
netname=TE_DATA
}
C 58800 45300 1 270 0 busripper-1.sym
{
T 59200 45300 5 8 0 0 270 0 1
device=none
}
N 58300 45700 58800 45700 4
{
T 59100 45700 5 10 1 1 0 0 1
netname=DC_CTRL
}
C 58800 45700 1 270 0 busripper-1.sym
{
T 59200 45700 5 8 0 0 270 0 1
device=none
}
N 58300 46100 58800 46100 4
{
T 59100 46100 5 10 1 1 0 0 1
netname=TE_CTRL
}
C 58800 46100 1 270 0 busripper-1.sym
{
T 59200 46100 5 8 0 0 270 0 1
device=none
}
C 46400 48300 1 180 0 nc-left-1.sym
{
T 46400 47900 5 10 0 0 180 0 1
value=NoConnection
T 46400 47500 5 10 0 0 180 0 1
device=DRC_Directive
}
N 58300 52100 59800 52100 4
N 59800 52100 59800 50000 4
N 59800 50000 61900 50000 4
N 61900 50000 61900 50400 4
N 60400 52200 60400 51800 4
T 60400 45050 8 10 0 0 0 0 1
netname=RESET
N 61150 45100 61200 45100 4
{
T 61100 45300 5 10 0 0 0 0 1
netname=RESET
}
C 60350 45700 1 90 0 busripper-1.sym
{
T 59950 45700 5 8 0 0 90 0 1
device=none
}
N 60350 45700 61450 45700 4
{
T 60450 45750 5 10 1 1 0 0 1
netname=RTS0
}
N 61450 47300 59200 47300 4
{
T 60450 47100 5 10 1 1 0 0 1
netname=CTS0
}
C 59200 47300 1 90 0 busripper-1.sym
{
T 58800 47300 5 8 0 0 90 0 1
device=none
}
N 58300 47300 58800 47300 4
C 58800 47300 1 0 0 busripper-1.sym
{
T 58800 47700 5 8 0 0 0 0 1
device=none
}
