%!PS-Adobe-3.0
%%Creator: cairo 1.10.2 (http://cairographics.org)
%%CreationDate: Wed Feb 13 15:13:26 2013
%%Pages: 1
%%BoundingBox: 0 0 72 70
%%DocumentData: Clean7Bit
%%LanguageLevel: 2
%%DocumentMedia: 25x24mm 72 69 0 () ()
%%EndComments
%%BeginProlog
/languagelevel where
{ pop languagelevel } { 1 } ifelse
2 lt { /Helvetica findfont 12 scalefont setfont 50 500 moveto
  (This print job requires a PostScript Language Level 2 printer.) show
  showpage quit } if
/q { gsave } bind def
/Q { grestore } bind def
/cm { 6 array astore concat } bind def
/w { setlinewidth } bind def
/J { setlinecap } bind def
/j { setlinejoin } bind def
/M { setmiterlimit } bind def
/d { setdash } bind def
/m { moveto } bind def
/l { lineto } bind def
/c { curveto } bind def
/h { closepath } bind def
/re { exch dup neg 3 1 roll 5 3 roll moveto 0 rlineto
      0 exch rlineto 0 rlineto closepath } bind def
/S { stroke } bind def
/f { fill } bind def
/f* { eofill } bind def
/n { newpath } bind def
/W { clip } bind def
/W* { eoclip } bind def
/BT { } bind def
/ET { } bind def
/pdfmark where { pop globaldict /?pdfmark /exec load put }
    { globaldict begin /?pdfmark /pop load def /pdfmark
    /cleartomark load def end } ifelse
/BDC { mark 3 1 roll /BDC pdfmark } bind def
/EMC { mark /EMC pdfmark } bind def
/cairo_store_point { /cairo_point_y exch def /cairo_point_x exch def } def
/Tj { show currentpoint cairo_store_point } bind def
/TJ {
  {
    dup
    type /stringtype eq
    { show } { -0.001 mul 0 cairo_font_matrix dtransform rmoveto } ifelse
  } forall
  currentpoint cairo_store_point
} bind def
/cairo_selectfont { cairo_font_matrix aload pop pop pop 0 0 6 array astore
    cairo_font exch selectfont cairo_point_x cairo_point_y moveto } bind def
/Tf { pop /cairo_font exch def /cairo_font_matrix where
      { pop cairo_selectfont } if } bind def
/Td { matrix translate cairo_font_matrix matrix concatmatrix dup
      /cairo_font_matrix exch def dup 4 get exch 5 get cairo_store_point
      /cairo_font where { pop cairo_selectfont } if } bind def
/Tm { 2 copy 8 2 roll 6 array astore /cairo_font_matrix exch def
      cairo_store_point /cairo_font where { pop cairo_selectfont } if } bind def
/g { setgray } bind def
/rg { setrgbcolor } bind def
/d1 { setcachedevice } bind def
%%EndProlog
%%Page: 1 1
%%BeginPageSetup
%%PageMedia: 25x24mm
%%PageBoundingBox: 0 0 72 70
%%EndPageSetup
q 0 0 72 70 rectclip q
0 g
18.488 0.81 m 18.125 1.751 18.641 2.837 19.445 2.837 c 19.742 2.837 
19.98 2.388 19.977 1.837 c 19.969 0.982 19.887 0.962 19.414 1.696 c 
18.938 2.427 18.855 2.407 18.852 1.552 c 18.84 0.228 19.348 0.29 20.977 
1.821 c 22.105 2.88 22.414 2.958 22.84 2.271 c 23.148 1.767 23.109 
1.161 22.738 0.712 c 21.91 -0.288 18.883 -0.218 18.488 0.81 c h
22.078 1.384 m 22.078 1.841 21.859 2.079 21.594 1.915 c 21.328 1.751 
21.258 1.376 21.438 1.083 c 21.898 0.337 22.078 0.419 22.078 1.384 c h
16.938 3.22 m 16.246 3.907 16.535 5.146 17.773 6.821 c 19.156 8.689 
18.867 10.267 17.145 10.267 c 16.508 10.267 15.984 10.493 15.984 10.771 
c 15.984 11.048 15.445 11.415 14.789 11.587 c 12.949 12.071 13.617 
13.942 15.703 14.153 c 16.645 14.247 18.309 14.739 19.402 15.243 c 
21.336 16.134 21.355 16.177 20.113 16.732 c 19.223 17.13 18.383 17.099 
17.363 16.634 c 14.719 15.431 13.762 17.536 16.227 19.149 c 17.473 
19.966 17.852 19.97 20.082 19.189 c 21.441 18.712 22.234 18.31 21.84 
18.294 c 21.449 18.278 21.125 17.958 21.125 17.583 c 21.125 17.091 
21.301 17.071 21.746 17.517 c 22.496 18.263 24.559 17.821 24.551 16.915 
c 24.551 16.56 23.777 15.829 22.836 15.294 c 21.113 14.314 20.52 12.626 
21.84 12.466 c 22.234 12.419 22.844 12.349 23.191 12.314 c 23.543 
12.278 24.242 11.907 24.746 11.489 c 25.406 10.942 26.492 10.841 28.613 
11.13 c 30.477 11.388 31.434 11.333 31.215 10.982 c 31 10.634 31.715 
10.579 33.145 10.841 c 35.672 11.302 36.082 11.071 34.129 10.286 c 
33.207 9.915 33.117 9.759 33.801 9.732 c 34.328 9.712 35.176 10.11 
35.684 10.618 c 36.535 11.47 36.688 11.47 37.629 10.618 c 39.367 9.044 
43.414 9.81 43.414 11.716 c 43.414 12.661 41.953 12.857 41.414 11.982 c 
40.758 10.915 38.844 11.341 38.844 12.552 c 38.844 13.259 39.227 13.7 
39.844 13.704 c 40.395 13.708 41.422 13.868 42.129 14.056 c 43.098 
14.317 43.414 14.157 43.414 13.415 c 43.414 12.771 43.715 12.544 44.277 
12.763 c 44.75 12.942 45.824 12.833 46.66 12.513 c 48.156 11.946 48.16 
11.927 47.012 11.118 c 45.316 9.931 44.922 7.927 46.309 7.564 c 46.918 
7.407 47.414 6.95 47.414 6.552 c 47.414 5.724 43.801 4.997 43.512 5.767 
c 43.406 6.04 41.539 6.267 39.367 6.267 c 36.234 6.267 35.414 6.446 
35.414 7.122 c 35.414 7.759 34.746 7.982 32.844 7.982 c 30.938 7.982 
30.27 7.759 30.27 7.122 c 30.27 6.599 29.738 6.267 28.902 6.267 c 
28.152 6.267 27.387 6.653 27.207 7.122 c 27.016 7.626 26.156 7.982 
25.145 7.982 c 24.02 7.982 23.414 8.267 23.414 8.806 c 23.414 9.896 
22.594 10.357 21.441 9.911 c 20.586 9.583 20.59 9.462 21.5 8.458 c 
22.445 7.411 22.43 7.298 21.094 5.982 c 20.328 5.224 19.367 4.208 
18.961 3.72 c 18.168 2.771 17.539 2.614 16.938 3.22 c h
18.863 5.384 m 18.484 5.841 18.527 6.333 18.992 6.88 c 19.371 7.329 
19.074 7.138 18.328 6.458 c 17.445 5.653 17.098 4.88 17.34 4.251 c 
17.645 3.458 17.867 3.411 18.57 3.993 c 19.152 4.478 19.246 4.919 
18.863 5.384 c h
21.543 7.591 m 21.418 7.962 20.883 8.306 20.355 8.353 c 19.621 8.415 
19.598 8.372 20.258 8.165 c 20.734 8.017 21.125 7.646 21.125 7.333 c 
21.125 7.024 20.898 6.911 20.617 7.087 c 20.332 7.259 19.953 7.013 
19.77 6.536 c 19.496 5.821 19.645 5.778 20.602 6.29 c 21.242 6.634 
21.668 7.22 21.543 7.591 c h
37.328 8.821 m 37.504 9.282 37.402 9.81 37.105 9.997 c 36.805 10.181 
36.559 10.064 36.559 9.728 c 36.559 9.392 35.23 9.083 33.559 9.032 c 
30.555 8.946 l 33.414 8.552 l 34.984 8.337 36.438 8.118 36.641 8.071 c 
36.84 8.021 37.152 8.36 37.328 8.821 c h
44.305 8.821 m 45.34 9.603 45.348 9.661 44.383 9.677 c 43.746 9.689 
43.488 9.97 43.711 10.411 c 43.91 10.802 43.668 10.626 43.172 10.017 c 
41.559 8.024 42.266 7.278 44.305 8.821 c h
25.508 9.384 m 25.508 9.841 25.293 10.083 25.031 9.923 c 24.77 9.759 
24.555 9.388 24.555 9.091 c 24.555 8.794 24.77 8.552 25.031 8.552 c 
25.293 8.552 25.508 8.927 25.508 9.384 c h
29.562 8.946 m 29.016 9.087 27.988 9.095 27.277 8.958 c 26.566 8.821 
27.012 8.704 28.27 8.696 c 29.527 8.689 30.109 8.802 29.562 8.946 c h
21.137 10.567 m 21.535 11.044 21.707 11.591 21.52 11.778 c 20.934 
12.364 19.414 11.493 19.414 10.571 c 19.414 9.45 20.211 9.45 21.137 
10.567 c h
29.984 10.267 m 29.789 10.583 29.324 10.833 28.949 10.829 c 28.543 
10.825 28.613 10.599 29.129 10.267 c 30.227 9.556 30.422 9.556 29.984 
10.267 c h
45.988 10.837 m 46.18 11.153 46.066 11.411 45.734 11.411 c 45.402 
11.411 45.129 11.153 45.129 10.837 c 45.129 10.524 45.242 10.267 45.383 
10.267 c 45.52 10.267 45.793 10.524 45.988 10.837 c h
18.27 11.411 m 18.27 11.724 18.012 11.982 17.699 11.982 c 17.383 11.982 
17.125 11.724 17.125 11.411 c 17.125 11.095 17.383 10.837 17.699 10.837 
c 18.012 10.837 18.27 11.095 18.27 11.411 c h
45.43 12.442 m 45.254 12.618 44.793 12.442 44.406 12.052 c 43.844 
11.489 43.91 11.423 44.727 11.732 c 45.289 11.946 45.605 12.267 45.43 
12.442 c h
16.293 12.591 m 16.82 13.442 16.207 13.903 15.113 13.485 c 14.609 13.29 
14.355 12.872 14.551 12.556 c 15.016 11.806 15.816 11.821 16.293 12.591 
c h
41.129 12.552 m 41.129 12.868 40.742 13.126 40.273 13.126 c 39.801 
13.126 39.414 12.868 39.414 12.552 c 39.414 12.239 39.801 11.982 40.273 
11.982 c 40.742 11.982 41.129 12.239 41.129 12.552 c h
20.426 14.161 m 20.551 14.532 20.242 14.837 19.746 14.837 c 19.25 
14.837 18.84 14.431 18.84 13.935 c 18.84 12.923 20.07 13.099 20.426 
14.161 c h
16.219 17.337 m 16.055 17.767 16.348 18.286 16.871 18.485 c 17.555 
18.747 17.734 18.614 17.504 18.013 c 17.246 17.341 17.449 17.274 18.543 
17.692 c 19.395 18.017 20.012 18.001 20.188 17.653 c 20.344 17.349 
20.398 17.423 20.309 17.825 c 20.223 18.224 19.703 18.474 19.152 18.372 
c 18.562 18.267 18.309 18.439 18.531 18.802 c 19.066 19.665 17.547 
19.556 16.293 18.642 c 15.711 18.216 15.422 17.575 15.645 17.212 c 
16.207 16.302 16.582 16.384 16.219 17.337 c h
24.656 3.794 m 24.758 4.314 25.164 4.849 25.555 4.982 c 26.605 5.329 
26.43 3.591 25.371 3.185 c 24.746 2.946 24.527 3.13 24.656 3.794 c h
48.062 10.22 m 47.426 10.614 47.473 10.814 48.301 11.278 c 49.266 
11.817 49.254 11.892 48.137 12.591 c 46.953 13.329 46.957 13.333 48.371 
14.446 c 49.953 15.692 55.293 16.595 54.617 15.501 c 54.336 15.048 
54.738 14.962 55.961 15.204 c 57.285 15.47 57.703 15.349 57.703 14.696 
c 57.703 13.232 56.344 12.61 53.559 12.798 c 50.926 12.974 49.645 
12.302 49.062 10.427 c 48.926 9.993 48.551 9.915 48.062 10.22 c h
49.059 12.946 m 48.379 13.778 48.395 13.864 49.176 13.571 c 49.723 
13.368 50.082 13.54 50.082 14.005 c 50.082 14.587 49.812 14.634 48.996 
14.196 c 48.133 13.735 48.051 13.45 48.59 12.798 c 48.965 12.349 49.398 
11.982 49.555 11.982 c 49.711 11.982 49.488 12.415 49.059 12.946 c h
56.223 13.47 m 56.719 13.661 56.965 14.075 56.77 14.388 c 56.551 14.739 
56.23 14.661 55.934 14.185 c 55.551 13.571 55.223 13.552 54.355 14.087 
c 53.754 14.462 52.652 14.595 51.91 14.388 c 50.68 14.044 50.738 13.978 
52.559 13.642 c 53.66 13.439 54.73 13.239 54.941 13.2 c 55.152 13.157 
55.727 13.278 56.223 13.47 c h
37.699 13.411 m 37.699 14.939 37.465 15.407 36.699 15.403 c 35.922 
15.396 35.871 15.286 36.477 14.903 c 37.016 14.56 37.059 14.29 36.617 
14.021 c 36.27 13.806 35.984 13.751 35.984 13.899 c 35.984 14.052 
35.828 14.579 35.637 15.079 c 35.379 15.759 35.656 15.982 36.781 15.982 
c 38.141 15.982 38.273 15.778 38.273 13.696 c 38.273 12.439 38.145 
11.411 37.984 11.411 c 37.828 11.411 37.699 12.31 37.699 13.411 c h
24.863 13.091 m 24.145 14.251 26.867 15.833 29.699 15.896 c 34.926 
16.013 33.875 13.505 28.449 12.907 c 26.609 12.704 25.051 12.786 24.863 
13.091 c h
26.84 13.696 m 26.059 14.204 26.441 14.521 27.598 14.321 c 27.859 
14.274 27.898 14.517 27.691 14.853 c 27.426 15.282 27.07 15.267 26.504 
14.798 c 25.402 13.884 25.492 13.122 26.699 13.134 c 27.555 13.142 
27.574 13.224 26.84 13.696 c h
32.414 14.696 m 32.543 15.087 32.359 15.411 32 15.411 c 31.641 15.411 
31.504 15.157 31.695 14.849 c 31.906 14.501 31.316 14.396 30.156 14.571 
c 28.664 14.802 28.508 14.747 29.414 14.314 c 30.863 13.618 32.109 
13.774 32.414 14.696 c h
58.066 15.696 m 57.887 16.169 57.102 16.552 56.324 16.552 c 55.547 
16.552 54.754 16.81 54.559 17.126 c 54.363 17.439 52.227 17.716 49.809 
17.735 c 47.395 17.759 44.973 17.95 44.438 18.165 c 43.074 18.704 
43.926 19.767 45.988 20.103 c 46.93 20.259 48.074 20.485 48.531 20.61 c 
49.645 20.915 49.676 19.232 48.57 18.735 c 47.949 18.458 48.086 18.337 
49.047 18.31 c 50.02 18.278 50.305 18.509 50.066 19.126 c 49.82 19.767 
50.16 19.982 51.434 19.982 c 52.367 19.982 53.133 20.177 53.133 20.411 
c 53.137 20.646 53.883 21.263 54.793 21.782 c 56.762 22.899 58.004 
22.189 57.082 20.466 c 56.469 19.321 55.328 19.009 55.559 20.052 c 
55.637 20.407 55.344 20.825 54.906 20.985 c 54.422 21.161 54.27 21.024 
54.512 20.626 c 54.734 20.274 54.574 19.978 54.164 19.974 c 53.613 
19.966 53.645 19.806 54.273 19.364 c 54.969 18.876 54.914 18.821 53.988 
19.075 c 53.359 19.243 52.457 19.138 51.988 18.833 c 51.32 18.407 
51.469 18.282 52.664 18.278 c 55.922 18.259 58.785 20.181 58.828 22.411 
c 58.836 22.962 59.102 23.411 59.418 23.411 c 60.199 23.411 62.273 
25.548 62.273 26.353 c 62.273 26.712 61.629 26.314 60.844 25.462 c 
60.035 24.591 59.125 24.095 58.754 24.325 c 58.395 24.548 58.234 24.497 
58.398 24.212 c 58.566 23.931 58.516 23.189 58.293 22.567 c 57.898 
21.478 57.855 21.485 57.18 22.747 c 56.629 23.782 56.629 24.232 57.18 
24.899 c 57.66 25.482 58.066 25.56 58.469 25.157 c 58.871 24.755 59.383 
24.864 60.094 25.509 c 61.344 26.638 61.477 28.079 60.293 27.626 c 
59.832 27.446 59.508 27.095 59.578 26.845 c 59.691 26.427 59.406 26.267 
58.547 26.267 c 58.16 26.267 60.082 29.294 60.781 29.786 c 61.617 
30.376 62.852 29.673 62.801 28.638 c 62.773 28.044 62.648 27.962 62.469 
28.411 c 62.105 29.31 60.758 29.341 60.219 28.466 c 59.961 28.048 
60.062 27.962 60.5 28.232 c 61.383 28.778 63.562 26.329 63.152 25.255 c 
62.984 24.821 63.008 23.829 63.199 23.048 c 63.496 21.868 63.805 21.692 
65.07 21.97 c 67.27 22.45 68.742 21.192 68.254 19.247 c 67.969 18.114 
67.504 17.696 66.527 17.696 c 65.789 17.696 64.957 17.282 64.676 16.778 
c 64.234 15.989 63.988 15.97 62.895 16.638 c 61.766 17.325 61.516 
17.271 60.574 16.126 c 59.348 14.63 58.531 14.489 58.066 15.696 c h
62.418 17.556 m 64.387 17.896 64.445 18.704 62.535 19.181 c 61.547 
19.431 60.727 19.224 59.965 18.532 c 58.574 17.274 58.504 16.286 59.844 
16.86 c 60.395 17.095 61.551 17.407 62.418 17.556 c h
67.262 20.735 m 66.969 21.618 65.633 21.833 64.598 21.169 c 63.922 
20.735 63.906 20.482 64.516 19.751 c 65.078 19.075 65.516 19.005 66.367 
19.462 c 66.984 19.79 67.387 20.364 67.262 20.735 c h
65.133 20.552 m 65.133 20.868 65.531 21.126 66.023 21.126 c 66.512 
21.126 66.754 20.868 66.559 20.552 c 66.367 20.239 65.965 19.982 65.668 
19.982 c 65.375 19.982 65.133 20.239 65.133 20.552 c h
5.457 15.962 m 5.375 16.13 5.328 17.04 5.359 17.982 c 5.398 19.306 
5.703 19.739 6.695 19.88 c 7.562 20.001 7.984 19.767 7.984 19.165 c 
7.984 18.673 8.23 18.267 8.535 18.267 c 8.84 18.267 8.945 17.817 8.77 
17.267 c 8.57 16.653 8.633 16.513 8.93 16.903 c 9.195 17.255 10.016 
17.732 10.75 17.962 c 11.852 18.306 12.055 18.192 11.887 17.321 c 11.73 
16.505 11.004 16.2 8.648 15.962 c 6.98 15.794 5.543 15.794 5.457 15.962 
c h
7.129 18.157 m 7.18 18.88 6.891 19.411 6.438 19.411 c 5.844 19.411 
5.797 19.146 6.242 18.314 c 6.641 17.571 6.645 17.122 6.25 16.927 c 
5.93 16.771 5.977 16.7 6.352 16.771 c 6.727 16.845 7.078 17.47 7.129 
18.157 c h
33.699 17.564 m 33.699 18.196 33.312 18.864 32.844 19.044 c 31.922 
19.399 31.637 22.56 32.48 23.079 c 32.754 23.247 32.855 24.017 32.707 
24.786 c 32.469 26.04 32.293 26.122 31.07 25.567 c 30.316 25.224 29.699 
24.626 29.699 24.239 c 29.699 23.544 25.844 22.505 25.297 23.052 c 
24.859 23.489 25.68 24.556 26.445 24.544 c 26.855 24.54 26.785 24.314 
26.27 23.982 c 25.547 23.517 25.578 23.427 26.473 23.419 c 27.129 
23.415 27.422 23.704 27.242 24.177 c 26.84 25.228 27.402 25.95 29.371 
26.896 c 30.289 27.337 31.109 28.024 31.188 28.427 c 31.266 28.825 
31.195 28.892 31.039 28.567 c 30.648 27.782 29.277 27.821 29.008 28.63 
c 28.883 29.001 28.078 28.61 27.102 27.7 c 26.172 26.833 25.871 26.45 
26.426 26.849 c 27.875 27.884 28.211 27.22 26.855 25.997 c 25.766 
25.009 25.707 25.009 25.328 25.997 c 24.797 27.384 27.715 29.724 29.688 
29.493 c 31.535 29.274 33.258 28.528 33.984 27.638 c 34.301 27.251 
35.07 26.849 35.699 26.743 c 36.328 26.634 37.09 25.985 37.395 25.298 c 
37.918 24.103 39.023 23.345 41.309 22.61 c 41.879 22.427 42.18 22.009 
41.973 21.677 c 41.734 21.286 42.164 21.2 43.223 21.435 c 44.129 21.634 
44.562 21.579 44.207 21.314 c 43 20.415 42.73 18.388 43.738 17.821 c 
44.398 17.454 43.574 17.298 41.051 17.314 c 39.051 17.325 36.578 17.126 
35.559 16.872 c 33.922 16.466 33.699 16.548 33.699 17.564 c h
35.699 17.696 m 35.895 18.009 35.652 18.267 35.16 18.267 c 34.672 
18.267 34.27 18.009 34.27 17.696 c 34.27 17.384 34.512 17.126 34.809 
17.126 c 35.105 17.126 35.504 17.384 35.699 17.696 c h
35.957 20.786 m 36.359 21.54 36.52 22.442 36.305 22.786 c 35.738 23.704 
34.27 23.548 34.27 22.571 c 34.27 22.032 33.914 21.849 33.27 22.056 c 
32.426 22.325 32.402 22.278 33.129 21.751 c 33.891 21.196 33.891 21.056 
33.129 20.501 c 32.402 19.97 32.426 19.923 33.27 20.196 c 33.82 20.372 
34.27 20.271 34.27 19.966 c 34.27 18.939 35.215 19.399 35.957 20.786 c 
h
41.699 19.982 m 40.914 20.235 40.551 20.466 40.891 20.497 c 41.59 20.56 
41.754 22.267 41.062 22.267 c 40.816 22.267 40.324 21.817 39.973 21.267 
c 39.359 20.317 39.344 20.317 39.641 21.267 c 40.016 22.478 39.102 
22.622 38.641 21.427 c 38.246 20.396 39.77 19.431 41.699 19.485 c 
43.129 19.524 l h
38.273 22.841 m 38.273 23.153 38.016 23.411 37.699 23.411 c 37.387 
23.411 37.129 23.153 37.129 22.841 c 37.129 22.524 37.387 22.267 37.699 
22.267 c 38.016 22.267 38.273 22.524 38.273 22.841 c h
36.844 24.556 m 37.406 25.466 36.543 26.485 35.82 25.759 c 35.391 
25.333 34.988 25.341 34.441 25.79 c 33.832 26.298 33.754 26.216 34.07 
25.399 c 34.363 24.634 34.27 24.489 33.707 24.833 c 33.203 25.146 33.09 
25.083 33.359 24.642 c 33.859 23.833 36.359 23.771 36.844 24.556 c h
22.023 19.368 m 21.355 20.107 21.25 20.564 21.688 20.833 c 22.598 
21.396 23.984 20.739 23.984 19.747 c 23.984 18.392 23.07 18.212 22.023 
19.368 c h
23.414 19.982 m 23.414 20.298 22.961 20.548 22.414 20.544 c 21.559 
20.536 21.539 20.454 22.27 19.982 c 23.348 19.286 23.414 19.286 23.414 
19.982 c h
10.082 24.982 m 9.941 25.22 9.859 26.048 9.902 26.825 c 9.98 28.173 
10.168 28.243 14.141 28.407 c 17.512 28.544 18.363 28.403 18.645 27.669 
c 18.836 27.173 18.723 26.493 18.395 26.165 c 17.48 25.251 12.781 
24.868 12.285 25.669 c 11.699 26.622 12 26.786 15.117 27.212 c 17.316 
27.513 17.781 27.439 17.414 26.841 c 17.105 26.345 17.172 26.232 17.609 
26.501 c 19.215 27.493 18 27.989 14.305 27.849 c 10.402 27.7 10.352 
27.677 11.133 26.478 c 11.887 25.317 11.746 24.556 10.777 24.556 c 
10.535 24.556 10.223 24.747 10.082 24.982 c h
15.84 26.091 m 15.289 26.235 14.391 26.235 13.84 26.091 c 13.289 25.946 
13.742 25.829 14.84 25.829 c 15.941 25.829 16.391 25.946 15.84 26.091 c 
h
40.559 26.505 m 40.559 28.989 42.941 29.837 46 28.442 c 47.195 27.899 
47.59 27.915 47.965 28.517 c 48.504 29.388 49.703 28.849 49.703 27.735 
c 49.703 26.403 48.363 25.853 44.414 25.552 c 40.738 25.271 40.559 
25.317 40.559 26.505 c h
48.414 26.579 m 48.809 26.7 49.129 27.212 49.129 27.712 c 49.129 28.212 
48.867 28.462 48.551 28.263 c 48.23 28.067 48.141 27.626 48.352 27.282 
c 48.562 26.942 48.477 26.821 48.164 27.017 c 47.848 27.212 46.266 
27.161 44.645 26.903 c 42.465 26.56 41.699 26.618 41.699 27.13 c 41.699 
27.579 42.453 27.763 43.844 27.657 c 45.18 27.552 45.664 27.661 45.129 
27.95 c 43.594 28.782 41.43 28.271 41.246 27.032 c 41.086 25.974 41.332 
25.903 44.387 26.118 c 46.211 26.247 48.023 26.454 48.414 26.579 c h
1.195 34.052 m 1.113 36.548 1.316 37.427 2.109 38.013 c 3.074 38.724 
3.062 38.821 1.898 39.911 c 1.227 40.54 0.562 40.946 0.422 40.806 c 
0.285 40.669 0.172 40.931 0.172 41.388 c 0.172 41.845 0.387 42.087 
0.648 41.927 c 0.91 41.763 1.125 41.903 1.125 42.235 c 1.125 42.567 
1.77 42.841 2.555 42.841 c 3.34 42.841 3.98 43.079 3.98 43.372 c 3.98 
44.286 1.445 44.321 0.715 43.419 c 0.102 42.657 0.016 42.669 0 43.517 c 
-0.012 44.048 0.523 44.649 1.184 44.86 c 2 45.118 2.195 45.427 1.797 
45.825 c 1.477 46.146 1.352 46.767 1.52 47.204 c 1.723 47.739 1.535 
47.888 0.945 47.661 c 0.277 47.403 0.141 47.61 0.375 48.505 c 0.543 
49.153 0.895 49.556 1.152 49.399 c 1.406 49.239 1.777 49.372 1.977 
49.689 c 2.66 50.798 3.734 50.263 3.672 48.845 c 3.637 48.064 3.438 
47.247 3.223 47.036 c 2.562 46.376 2.801 45.7 3.695 45.7 c 4.168 45.7 
4.555 45.958 4.555 46.271 c 4.555 46.583 5.004 46.845 5.555 46.853 c 
6.41 46.857 6.43 46.939 5.695 47.415 c 5.008 47.86 5.098 47.97 6.16 
47.978 c 6.895 47.982 7.324 47.732 7.125 47.415 c 6.906 47.064 7.867 
46.841 9.617 46.841 c 11.355 46.841 12.57 47.118 12.75 47.556 c 12.969 
48.099 13.152 48.11 13.52 47.595 c 13.961 46.978 18.902 46.161 22.215 
46.161 c 23.254 46.161 23.391 46.032 22.785 45.634 c 22.344 45.341 
20.957 45.134 19.699 45.169 c 15.559 45.286 10.543 45.044 11.238 44.759 
c 11.613 44.607 11.777 44.114 11.605 43.661 c 11.359 43.024 11.863 
42.841 13.887 42.841 c 15.316 42.841 16.613 43.044 16.766 43.294 c 
17.191 43.982 21.125 44.107 21.125 43.431 c 21.125 43.107 20.035 42.798 
18.699 42.747 c 16.27 42.649 l 18.383 42.427 l 19.938 42.263 20.41 
41.985 20.18 41.38 c 19.984 40.872 20.215 40.556 20.781 40.556 c 21.285 
40.556 21.699 40.821 21.699 41.146 c 21.699 41.517 22.828 41.63 24.699 
41.454 c 26.715 41.263 27.137 41.314 25.984 41.61 c 25.027 41.853 
24.344 42.376 24.434 42.79 c 24.523 43.2 24.355 43.829 24.062 44.189 c 
23.695 44.638 24.105 45.138 25.375 45.782 c 26.844 46.528 27.223 46.56 
27.223 45.95 c 27.223 45.524 27.008 45.31 26.75 45.47 c 26.191 45.814 
24.785 42.993 25.27 42.509 c 25.453 42.325 26.195 42.263 26.926 42.368 
c 28.129 42.54 28.168 42.634 27.336 43.407 c 26.52 44.165 26.516 44.325 
27.297 44.896 c 28.34 45.657 27.836 47.415 26.574 47.415 c 26.094 
47.415 25.699 47.22 25.699 46.985 c 25.699 46.634 23.676 46.556 20.949 
46.802 c 20.695 46.825 20.648 47.099 20.84 47.415 c 21.242 48.064 
21.406 48.032 16.84 48.212 c 14.953 48.286 12.898 48.548 12.27 48.79 c 
11.57 49.064 11.395 49.04 11.82 48.732 c 12.273 48.403 11.684 48.192 
10.152 48.134 c 7.461 48.024 6.352 48.466 7.492 49.192 c 8.609 49.896 
24.711 49.845 24.273 49.134 c 24.059 48.786 24.859 48.649 26.383 48.782 
c 28.453 48.962 28.57 48.923 27.129 48.532 c 25.586 48.118 25.668 
48.075 27.984 48.107 c 32.09 48.157 32.234 48.118 31.402 47.114 c 
31.004 46.634 30.844 46.079 31.047 45.876 c 31.25 45.673 31.414 45.81 
31.414 46.177 c 31.414 46.54 31.93 46.841 32.555 46.841 c 33.191 46.841 
33.699 46.462 33.699 45.985 c 33.699 45.415 33.129 45.126 31.984 45.126 
c 30.453 45.126 29.988 45.614 30.203 46.985 c 30.238 47.22 29.887 
47.415 29.414 47.415 c 28.938 47.415 28.555 46.907 28.555 46.271 c 
28.555 45.642 28.797 45.126 29.09 45.126 c 29.383 45.126 29.785 44.614 
29.984 43.985 c 30.238 43.185 30.852 42.841 32.023 42.841 c 33.32 
42.841 33.699 43.103 33.699 43.985 c 33.699 44.614 33.969 45.126 34.297 
45.126 c 34.625 45.126 34.816 44.759 34.727 44.31 c 34.633 43.857 
34.812 43.497 35.129 43.509 c 35.441 43.517 35.637 43.759 35.559 44.04 
c 35.477 44.325 36.715 44.556 38.305 44.556 c 40.086 44.556 41.062 
44.774 40.844 45.126 c 40.645 45.45 41.102 45.7 41.891 45.7 c 42.66 
45.7 43.441 45.314 43.621 44.841 c 43.801 44.372 44.344 43.985 44.824 
43.985 c 45.996 43.985 45.945 42.485 44.762 42.032 c 44.246 41.833 
43.688 41.806 43.523 41.97 c 43.359 42.134 43.539 42.271 43.926 42.271 
c 44.309 42.271 44.465 42.528 44.273 42.841 c 44.078 43.157 43.18 
43.411 42.273 43.411 c 40.297 43.411 39.348 42.298 41.238 42.204 c 
42.309 42.149 42.234 42.064 40.844 41.759 c 39.672 41.505 39.07 41.614 
38.945 42.114 c 38.844 42.513 38.328 42.872 37.801 42.911 c 37.273 
42.946 37.613 43.173 38.559 43.411 c 40.133 43.814 40.156 43.853 38.844 
43.899 c 38.059 43.927 36.914 43.571 36.305 43.11 c 35.621 42.591 
33.906 42.271 31.844 42.271 c 29.926 42.271 28.629 42.044 28.816 41.739 
c 29.281 40.989 27.328 40.482 24.613 40.642 c 23.34 40.716 22.141 
40.618 21.949 40.423 c 21.754 40.228 23.414 40.099 25.637 40.134 c 
27.859 40.169 29.855 40.021 30.07 39.806 c 30.285 39.591 30.031 39.411 
29.508 39.411 c 28.957 39.411 28.555 38.958 28.555 38.337 c 28.555 
37.204 26.742 36.411 25.359 36.942 c 24.918 37.11 24.555 37.735 24.555 
38.329 c 24.555 39.446 24.203 39.532 19.195 39.646 c 17.441 39.689 
16.875 39.97 16.5 40.985 c 16.105 42.036 15.586 42.271 13.617 42.271 c 
12.227 42.271 10.793 42.653 10.215 43.177 c 9.664 43.673 8.188 44.22 
6.934 44.388 c 4.863 44.665 4.633 44.567 4.457 43.341 c 4.312 42.321 
3.945 42.017 2.98 42.122 c 1.359 42.294 1.246 40.774 2.84 40.271 c 
4.172 39.849 4.434 37.067 3.234 36.075 c 2.801 35.712 2.535 34.485 
2.602 33.146 c 2.68 31.626 2.477 30.841 2.012 30.841 c 1.543 30.841 
1.266 31.931 1.195 34.052 c h
27.41 37.685 m 28.07 38.103 28.109 38.376 27.574 38.907 c 27.043 39.439 
26.695 39.431 26.016 38.868 c 24.535 37.638 25.73 36.622 27.41 37.685 c 
h
25.984 38.271 m 26.18 38.583 26.449 38.841 26.59 38.841 c 26.727 38.841 
26.84 38.583 26.84 38.271 c 26.84 37.954 26.57 37.696 26.238 37.696 c 
25.902 37.696 25.789 37.954 25.984 38.271 c h
18.523 41.177 m 18.34 41.474 17.945 41.567 17.648 41.384 c 17.352 41.2 
17.258 40.806 17.441 40.505 c 17.625 40.208 18.02 40.114 18.316 40.302 
c 18.617 40.485 18.711 40.88 18.523 41.177 c h
29.129 43.985 m 29.129 44.298 28.871 44.556 28.555 44.556 c 28.242 
44.556 27.984 44.298 27.984 43.985 c 27.984 43.669 28.242 43.411 28.555 
43.411 c 28.871 43.411 29.129 43.669 29.129 43.985 c h
7.488 46.153 m 6.746 46.271 5.902 46.13 5.613 45.845 c 5.297 45.528 
5.828 45.442 6.965 45.63 c 8.551 45.896 8.633 45.974 7.488 46.153 c h
14.684 46.114 m 13.5 46.239 11.699 46.239 10.684 46.11 c 9.672 45.985 
10.641 45.884 12.84 45.888 c 15.039 45.888 15.871 45.993 14.684 46.114 
c h
22.555 48.556 m 21.926 48.825 21.027 49.048 20.555 49.048 c 20.016 
49.048 20.121 48.864 20.84 48.556 c 21.469 48.286 22.371 48.064 22.84 
48.064 c 23.383 48.064 23.277 48.247 22.555 48.556 c h
18.133 48.95 m 17.586 49.091 16.559 49.099 15.848 48.962 c 15.137 
48.825 15.582 48.708 16.84 48.7 c 18.098 48.692 18.68 48.806 18.133 
48.95 c h
59.988 32.271 m 59.988 32.794 59.453 33.126 58.605 33.126 c 56.547 
33.126 55.418 33.704 55.418 34.759 c 55.418 35.489 54.848 35.696 52.852 
35.696 c 51.324 35.696 50.176 35.407 50.012 34.985 c 49.68 34.118 
48.195 34.04 47.684 34.864 c 47.125 35.774 48.629 37.243 49.805 36.935 
c 51.18 36.575 51.836 37.704 50.637 38.372 c 50.125 38.661 49.703 
39.208 49.703 39.583 c 49.703 40.091 47.773 40.224 42.285 40.095 c 
35.078 39.927 34.871 39.888 34.996 38.689 c 35.082 37.911 34.762 37.384 
34.129 37.251 c 33.387 37.099 33.129 37.411 33.129 38.474 c 33.129 
39.474 32.777 39.958 31.961 40.087 c 29.922 40.407 30.754 41.411 33.105 
41.466 c 34.352 41.493 35.234 41.302 35.074 41.036 c 34.691 40.423 
37.934 40.439 40.621 41.064 c 41.754 41.325 43.941 41.349 45.477 41.11 
c 47.137 40.853 48.551 40.903 48.961 41.239 c 49.871 41.978 50.914 
41.29 50.715 40.083 c 50.594 39.341 51.074 39.091 52.844 38.97 c 54.535 
38.849 54.906 38.958 54.273 39.388 c 53.594 39.845 53.742 39.97 54.988 
39.974 c 56.598 39.985 57.125 39.165 55.844 38.649 c 55.363 38.454 
55.348 38.345 55.793 38.314 c 56.18 38.29 56.32 37.767 56.129 37.036 c 
55.848 35.962 55.984 35.853 57.184 36.173 c 57.941 36.372 58.879 36.544 
59.273 36.548 c 59.668 36.552 59.988 36.814 59.988 37.126 c 59.988 
37.442 59.328 37.696 58.52 37.696 c 57.332 37.696 57.121 37.907 57.402 
38.798 c 57.625 39.505 57.414 40.091 56.805 40.431 c 56.031 40.86 
56.195 41.024 57.699 41.325 c 59.027 41.591 59.449 41.935 59.211 42.556 
c 58.734 43.79 60.91 43.669 61.707 42.411 c 62.16 41.696 62.426 41.614 
62.641 42.126 c 62.805 42.521 63.32 42.841 63.785 42.841 c 64.246 
42.841 64.469 42.583 64.273 42.271 c 64.078 41.954 64.191 41.7 64.527 
41.7 c 64.859 41.7 65.133 42.118 65.133 42.626 c 65.133 43.36 64.758 
43.482 63.371 43.204 c 62.16 42.962 61.68 43.06 61.832 43.517 c 62.332 
45.013 66.816 44.509 66.891 42.946 c 66.918 42.333 67.043 42.247 67.227 
42.712 c 67.391 43.11 68.246 43.814 69.133 44.271 c 70.738 45.103 
70.867 45.872 69.848 48.556 c 69.668 49.028 69.57 49.626 69.625 49.884 
c 69.684 50.146 69.148 50.169 68.434 49.939 c 67.715 49.708 66.746 
49.521 66.273 49.524 c 65.805 49.524 65.203 49.243 64.945 48.899 c 
64.609 48.454 64.391 48.478 64.184 48.985 c 64.023 49.38 63.527 49.7 
63.082 49.7 c 62.637 49.7 62.273 50.2 62.273 50.81 c 62.273 51.419 
62.059 52.052 61.797 52.212 c 60.988 52.712 58.867 50.872 59.215 49.974 
c 59.395 49.505 59.133 48.982 58.617 48.786 c 57.414 48.325 57.395 45.7 
58.598 45.7 c 59.215 45.7 59.387 46.032 59.152 46.771 c 58.902 47.56 
59.16 47.935 60.113 48.192 c 62.207 48.751 64.098 48.622 63.68 47.946 c 
63.473 47.61 63.754 47.009 64.305 46.607 c 65.055 46.056 65.129 45.763 
64.598 45.435 c 64.207 45.196 63.637 45.251 63.324 45.564 c 62.664 
46.224 58.125 45.255 58.562 44.548 c 58.887 44.028 57.453 43.396 56.082 
43.454 c 55.32 43.485 55.355 43.583 56.254 43.935 c 57.125 44.274 
56.801 44.45 54.824 44.716 c 53.145 44.939 52.004 45.458 51.488 46.235 
c 50.988 46.985 50.086 47.415 49 47.415 c 47.469 47.415 47.328 47.56 
47.648 48.829 c 47.941 50.005 47.758 50.306 46.57 50.607 c 44.918 
51.021 45.188 51.817 47.238 52.599 c 48.66 53.138 l 47.043 54.989 l 
45.953 56.239 44.914 56.845 43.848 56.845 c 42.152 56.845 42.164 56.86 
42.059 54.224 c 42 52.806 41.621 52.306 40.129 51.677 c 37.953 50.763 
37.871 50.524 39.449 49.681 c 40.238 49.259 40.859 49.239 41.316 49.618 
c 42 50.185 44.039 50.524 45.766 50.36 c 46.836 50.255 46.781 47.857 
45.68 46.528 c 45.125 45.864 45.168 45.7 45.891 45.7 c 46.691 45.7 
49.703 43.196 49.703 42.528 c 49.703 42.388 49.316 42.271 48.844 42.271 
c 48.371 42.271 47.988 42.021 47.988 41.716 c 47.988 41.411 47.59 
41.314 47.105 41.501 c 46.621 41.689 46.359 41.978 46.527 42.142 c 
46.691 42.31 46.32 43.267 45.699 44.271 c 45.082 45.274 44.742 46.267 
44.953 46.474 c 45.16 46.685 44.578 46.728 43.66 46.571 c 40.215 45.985 
34.27 45.833 34.27 46.329 c 34.27 46.868 34.777 46.978 37.129 46.954 c 
38.449 46.939 38.461 46.962 37.27 47.216 c 36.562 47.368 35.984 47.759 
35.984 48.087 c 35.984 48.431 36.645 48.544 37.559 48.357 c 38.422 
48.177 38.809 48.169 38.414 48.341 c 38.02 48.513 37.699 49.017 37.699 
49.462 c 37.699 50.771 36.586 50.392 35.883 48.841 c 35.488 47.974 
34.762 47.415 34.035 47.423 c 33.055 47.431 32.996 47.528 33.699 47.985 
c 34.359 48.411 34.168 48.54 32.871 48.548 c 30.738 48.56 31.609 49.54 
33.984 49.798 c 36.438 50.064 35.855 51.095 33.137 51.306 c 31.602 
51.423 30.844 51.751 30.844 52.306 c 30.844 52.759 30.609 53.13 30.324 
53.13 c 30.039 53.13 29.941 52.614 30.105 51.985 c 30.309 51.212 30.891 
50.841 31.91 50.833 c 33.09 50.825 33.23 50.704 32.555 50.271 c 31.461 
49.564 28.555 49.532 28.555 50.228 c 28.555 50.521 28.105 50.876 27.555 
51.021 c 26.941 51.181 27.16 51.306 28.129 51.349 c 28.992 51.384 
29.699 51.607 29.699 51.841 c 29.695 52.431 21.91 52.388 21.32 51.798 c 
21.059 51.536 21.492 51.485 22.285 51.681 c 23.078 51.88 24.363 51.802 
25.141 51.509 c 26.098 51.146 22.543 50.958 14.141 50.939 c 7.188 
50.919 1.582 51.134 1.402 51.431 c 0.777 52.442 5.754 59.146 7.465 
59.595 c 8.062 59.751 8.555 59.646 8.555 59.36 c 8.555 59.075 8.055 
58.845 7.445 58.845 c 6.836 58.845 6.215 58.649 6.07 58.415 c 5.926 
58.181 8.992 57.985 12.891 57.985 c 17.141 57.985 20.039 57.759 20.125 
57.415 c 20.203 57.099 19.625 56.782 18.84 56.708 c 17.789 56.61 17.672 
56.689 18.391 56.997 c 18.93 57.228 17.352 57.415 14.879 57.415 c 
12.406 57.415 10.68 57.224 11.039 56.993 c 11.402 56.763 13.07 56.571 
14.746 56.567 c 18.238 56.556 18.625 55.427 15.371 54.755 c 13.809 
54.435 13.152 54.595 12.129 55.552 c 11.422 56.212 10.66 56.567 10.43 
56.337 c 10.203 56.11 10.395 55.657 10.855 55.329 c 11.539 54.849 11.5 
54.798 10.652 55.075 c 10.074 55.263 9.367 55.415 9.078 55.415 c 8.789 
55.415 8.555 55.927 8.555 56.556 c 8.555 57.196 8.172 57.7 7.688 57.7 c 
7.09 57.7 6.859 57.2 6.945 56.079 c 7.078 54.333 7.367 54.235 12.555 
54.208 c 20.477 54.161 24.457 54.337 25.984 54.802 c 27.246 55.185 
26.754 55.235 24.129 55.001 c 20.703 54.692 20.191 54.903 20.699 56.411 
c 20.777 56.646 22.129 56.86 23.699 56.888 c 31.695 57.032 33.422 
57.204 32.27 57.747 c 31.418 58.146 31.711 58.212 33.414 58.001 c 
35.426 57.751 35.527 57.794 34.27 58.333 c 33.484 58.669 31.492 58.814 
29.844 58.649 c 27.008 58.372 25.668 58.974 27.852 59.544 c 29.422 
59.954 37.863 58.626 37.32 58.056 c 37.059 57.778 37.387 57.88 38.055 
58.286 c 39.359 59.083 41.43 58.649 40.844 57.704 c 40.648 57.388 
39.805 57.13 38.969 57.13 c 37.445 57.13 l 38.766 56.204 l 40.402 55.06 
41.32 55.794 41.32 58.251 c 41.32 59.985 l 45.188 59.985 l 47.316 
59.985 49.746 60.247 50.59 60.571 c 51.668 60.978 52.352 60.966 52.887 
60.524 c 53.301 60.177 54.363 59.97 55.246 60.064 c 56.125 60.153 
57.102 60.079 57.418 59.896 c 57.73 59.708 58.504 59.763 59.129 60.017 
c 60.109 60.411 60.027 60.493 58.559 60.579 c 57.617 60.634 56.203 
60.642 55.418 60.595 c 54.52 60.54 53.715 60.954 53.254 61.7 c 52.379 
63.118 52.781 63.985 54.309 63.985 c 55.637 63.985 55.789 65.435 54.512 
65.927 c 53.02 66.497 52.848 66.321 54.02 65.435 c 55.102 64.614 55.098 
64.595 53.844 64.575 c 53.137 64.567 52.559 64.298 52.559 63.982 c 
52.559 63.357 48.039 63.829 47.254 64.536 c 47.008 64.755 47.551 64.829 
48.457 64.696 c 49.602 64.528 50.219 64.732 50.461 65.364 c 50.652 
65.864 50.559 66.274 50.254 66.274 c 49.949 66.274 49.703 65.997 49.703 
65.661 c 49.703 65.325 49.121 65.134 48.414 65.232 c 47.465 65.368 
47.176 65.739 47.301 66.661 c 47.445 67.712 47.086 67.993 45.016 68.442 
c 42.559 68.978 l 45.559 68.958 l 47.207 68.946 48.559 68.728 48.559 
68.478 c 48.559 67.673 51.77 66.321 52.949 66.63 c 53.664 66.817 54.734 
66.38 55.832 65.458 c 56.793 64.649 58.105 63.985 58.742 63.985 c 
59.941 63.985 61.703 62.603 61.703 61.661 c 61.703 61.368 62.332 61.13 
63.098 61.13 c 65.109 61.13 65.52 59.997 63.938 58.806 c 63.188 58.239 
62.758 57.595 62.984 57.372 c 63.207 57.149 63.766 57.278 64.23 57.661 
c 65.465 58.689 67.621 58.173 68.266 56.7 c 68.578 55.993 69.156 55.415 
69.555 55.415 c 69.949 55.415 70.273 54.798 70.273 54.048 c 70.273 
53.294 70.66 52.532 71.133 52.349 c 72.117 51.974 72.309 48.821 71.383 
48.251 c 71.039 48.036 70.934 47.169 71.145 46.22 c 71.449 44.821 
71.289 44.478 70.113 44.032 c 68.715 43.501 67.797 42.161 67.734 40.556 
c 67.715 40.083 67.316 39.7 66.844 39.7 c 66.375 39.7 66.059 40.04 
66.145 40.458 c 66.242 40.915 65.898 41.138 65.289 41.021 c 64.73 
40.915 64.32 40.571 64.375 40.263 c 64.434 39.95 64.141 39.314 63.73 
38.841 c 62.723 37.689 62.062 35.411 62.738 35.411 c 63.035 35.411 
63.598 35.798 63.988 36.271 c 64.379 36.739 65.184 37.126 65.773 37.126 
c 67.059 37.126 68.848 38.79 68.848 39.985 c 68.848 40.462 69.355 
40.841 69.988 40.841 c 70.914 40.841 71.133 40.462 71.133 38.841 c 
71.133 36.966 71.016 36.841 69.273 36.845 c 67.879 36.849 67.418 36.603 
67.418 35.845 c 67.418 35.294 67.156 34.841 66.84 34.841 c 66.523 
34.841 65.457 34.067 64.469 33.126 c 62.559 31.302 59.988 30.81 59.988 
32.271 c h
60.988 34.665 m 60.438 34.806 59.539 34.806 58.988 34.665 c 58.438 
34.521 58.887 34.403 59.988 34.403 c 61.09 34.403 61.539 34.521 60.988 
34.665 c h
65.742 34.86 m 66.348 35.185 66.848 35.72 66.848 36.044 c 66.848 36.372 
66.441 36.232 65.949 35.739 c 64.805 34.599 64.344 34.591 64.777 35.728 
c 64.973 36.235 64.879 36.466 64.555 36.267 c 63.957 35.896 63.762 
34.271 64.312 34.271 c 64.488 34.271 65.133 34.536 65.742 34.86 c h
49.703 36.017 m 49.703 36.314 49.445 36.556 49.129 36.556 c 48.816 
36.556 48.559 36.153 48.559 35.665 c 48.559 35.173 48.816 34.931 49.129 
35.126 c 49.445 35.321 49.703 35.724 49.703 36.017 c h
53.703 36.556 m 53.703 36.868 53.316 37.126 52.844 37.126 c 52.371 
37.126 51.988 36.868 51.988 36.556 c 51.988 36.239 52.371 35.985 52.844 
35.985 c 53.316 35.985 53.703 36.239 53.703 36.556 c h
70.559 37.696 m 70.754 38.013 70.512 38.271 70.023 38.271 c 69.531 
38.271 69.133 38.013 69.133 37.696 c 69.133 37.384 69.375 37.126 69.668 
37.126 c 69.965 37.126 70.367 37.384 70.559 37.696 c h
34.844 38.271 m 34.844 38.583 34.586 38.841 34.27 38.841 c 33.957 
38.841 33.699 38.583 33.699 38.271 c 33.699 37.954 33.957 37.696 34.27 
37.696 c 34.586 37.696 34.844 37.954 34.844 38.271 c h
62.844 39.411 m 62.844 39.728 62.461 39.985 61.988 39.985 c 61.516 
39.985 61.133 39.728 61.133 39.411 c 61.133 39.099 61.516 38.841 61.988 
38.841 c 62.461 38.841 62.844 39.099 62.844 39.411 c h
32.402 40.899 m 32.211 41.091 31.719 41.11 31.305 40.946 c 30.852 
40.763 30.984 40.63 31.652 40.603 c 32.254 40.575 32.59 40.712 32.402 
40.899 c h
61.418 41.126 m 61.223 41.442 60.82 41.7 60.527 41.7 c 60.23 41.7 
59.988 41.442 59.988 41.126 c 59.988 40.814 60.391 40.556 60.879 40.556 
c 61.367 40.556 61.609 40.814 61.418 41.126 c h
53.414 46.841 m 53.156 47.661 53.312 47.985 53.977 47.985 c 54.484 
47.985 55.531 48.665 56.301 49.497 c 58.293 51.649 57.383 52.544 53.84 
51.927 c 52.348 51.665 50.629 51.509 50.02 51.575 c 49.137 51.673 
48.883 51.314 48.797 49.841 c 48.719 48.423 48.926 47.985 49.68 47.985 
c 50.223 47.985 51.133 47.47 51.703 46.841 c 52.27 46.212 52.969 45.7 
53.258 45.7 c 53.543 45.7 53.617 46.212 53.414 46.841 c h
49.992 49.118 m 49.57 49.802 50.105 50.841 50.879 50.841 c 51.574 
50.841 51.578 49.294 50.883 48.868 c 50.59 48.685 50.191 48.798 49.992 
49.118 c h
56.82 46.802 m 57.242 47.485 56.168 48.165 55.406 47.692 c 54.77 47.298 
55.188 46.271 55.988 46.271 c 56.266 46.271 56.641 46.509 56.82 46.802 
c h
45.457 48.052 m 45.828 48.649 42.996 50.044 42.473 49.521 c 42.273 
49.321 42.402 48.806 42.758 48.376 c 43.113 47.946 43.254 47.442 43.066 
47.255 c 42.883 47.071 43.273 47.064 43.938 47.235 c 44.602 47.411 
45.285 47.778 45.457 48.052 c h
62.844 47.415 m 62.844 47.728 62.59 47.985 62.273 47.985 c 61.961 
47.985 61.703 47.728 61.703 47.415 c 61.703 47.099 61.961 46.841 62.273 
46.841 c 62.59 46.841 62.844 47.099 62.844 47.415 c h
41.855 47.79 m 41.469 47.946 40.695 47.954 40.141 47.81 c 39.582 47.665 
39.898 47.536 40.844 47.524 c 41.785 47.513 42.242 47.63 41.855 47.79 c 
h
64.617 51.927 m 63.418 53.13 l 63.418 51.747 l 63.418 50.321 64.48 
49.509 65.332 50.286 c 65.598 50.528 65.277 51.267 64.617 51.927 c h
71.41 51.591 m 71.402 52.048 71.238 52.013 70.91 51.497 c 70.582 50.982 
70.293 50.923 70.043 51.329 c 69.836 51.661 69.246 51.774 68.734 51.579 
c 68.059 51.317 67.93 51.431 68.27 51.978 c 68.582 52.485 68.516 52.599 
68.066 52.321 c 67.18 51.771 67.887 50.681 68.887 51.064 c 69.316 
51.228 69.82 51.114 70.012 50.81 c 70.438 50.118 71.422 50.669 71.41 
51.591 c h
3.133 53.024 m 2.68 53.482 1.695 52.45 2.043 51.884 c 2.281 51.501 
2.574 51.56 2.879 52.052 c 3.137 52.47 3.25 52.907 3.133 53.024 c h
6.438 52.939 m 6.172 53.634 6.02 53.653 5.625 53.032 c 4.902 51.896 
5.027 51.411 5.945 51.767 c 6.398 51.939 6.621 52.466 6.438 52.939 c h
11.984 51.946 m 11.984 51.11 18.664 51.325 20.836 52.232 c 22.152 
52.782 23.836 52.942 25.961 52.724 c 28.168 52.497 29.129 52.599 29.129 
53.06 c 29.129 53.478 28.543 53.607 27.555 53.411 c 26.25 53.153 26.184 
53.192 27.16 53.63 c 28.711 54.321 31.414 53.778 31.414 52.774 c 31.414 
51.872 31.926 51.786 33.059 52.501 c 33.492 52.774 33.668 53.286 33.453 
53.638 c 33.23 53.993 33.434 54.271 33.918 54.271 c 35.094 54.271 
35.723 53.103 34.84 52.556 c 33.719 51.864 36.266 51.259 38.359 51.72 c 
39.723 52.017 39.953 52.239 39.348 52.669 c 38.766 53.079 38.906 53.149 
39.875 52.939 c 40.891 52.712 41.055 52.814 40.594 53.368 c 40.266 
53.767 40.164 54.259 40.371 54.466 c 40.578 54.673 40.32 54.845 39.797 
54.845 c 39.273 54.845 38.844 55.099 38.844 55.415 c 38.844 56.247 
34.98 56.114 34.699 55.274 c 34.555 54.833 33.176 54.513 31.082 54.431 
c 29.223 54.364 24.484 54.044 20.555 53.728 c 11.812 53.017 12.203 
53.028 9.41 53.439 c 7.844 53.669 7.379 53.599 7.93 53.22 c 8.375 
52.911 9.145 52.79 9.645 52.95 c 10.391 53.185 10.41 53.134 9.75 52.665 
c 9.305 52.349 8.535 52.22 8.035 52.376 c 7.301 52.61 7.277 52.556 
7.918 52.103 c 8.383 51.767 9.379 51.732 10.344 52.009 c 11.312 52.286 
11.984 52.259 11.984 51.946 c h
14.41 52.396 m 15.277 52.524 16.691 52.524 17.555 52.396 c 18.418 
52.263 17.711 52.157 15.984 52.157 c 14.254 52.157 13.547 52.263 14.41 
52.396 c h
36.141 52.38 m 36.695 52.524 37.469 52.517 37.855 52.36 c 38.242 52.204 
37.785 52.087 36.844 52.099 c 35.898 52.107 35.582 52.235 36.141 52.38 
c h
19.875 52.946 m 20.289 53.114 20.781 53.091 20.973 52.903 c 21.16 
52.712 20.824 52.575 20.223 52.603 c 19.555 52.63 19.422 52.767 19.875 
52.946 c h
35.504 54.204 m 34.938 54.564 35.145 54.794 36.285 55.079 c 37.992 
55.509 38.586 55.243 38.008 54.31 c 37.559 53.579 36.555 53.536 35.504 
54.204 c h
51.414 52.556 m 51.414 52.872 51.145 53.13 50.809 53.13 c 50.477 53.13 
50.363 52.872 50.559 52.556 c 50.754 52.243 51.023 51.985 51.164 51.985 
c 51.301 51.985 51.414 52.243 51.414 52.556 c h
58.844 53.669 m 59.457 53.747 59.375 53.919 58.559 54.271 c 57.004 
54.939 50.273 54.974 50.273 54.31 c 50.273 53.521 54.938 53.169 58.844 
53.669 c h
5.668 54.228 m 5.809 54.251 5.621 54.575 5.254 54.942 c 4.738 55.458 
4.742 55.825 5.273 56.517 c 5.691 57.06 5.465 56.989 4.699 56.337 c 
4.008 55.747 3.562 55.06 3.715 54.814 c 3.867 54.571 3.668 54.235 3.273 
54.071 c 2.691 53.829 3.625 53.892 5.668 54.228 c h
65.703 54.271 m 65.703 54.587 65.43 54.841 65.098 54.841 c 64.766 
54.841 64.645 55.087 64.832 55.388 c 65.016 55.689 65.52 55.802 65.949 
55.638 c 66.379 55.47 66.883 55.583 67.066 55.884 c 67.254 56.181 
66.957 56.392 66.41 56.349 c 65.863 56.306 65.473 56.567 65.543 56.935 
c 65.625 57.372 65.047 57.294 63.828 56.704 c 61.43 55.54 61.066 55.169 
62.844 55.7 c 63.633 55.935 64.098 55.939 63.879 55.712 c 63.664 55.482 
63.793 54.942 64.164 54.517 c 64.977 53.595 65.703 53.478 65.703 54.271 
c h
69.703 54.271 m 69.703 54.587 69.316 54.841 68.848 54.841 c 68.375 
54.841 67.988 54.587 67.988 54.271 c 67.988 53.958 68.375 53.7 68.848 
53.7 c 69.316 53.7 69.703 53.958 69.703 54.271 c h
59.172 55.345 m 59.004 55.622 59.625 55.997 60.559 56.185 c 61.762 
56.427 62.156 56.774 61.922 57.384 c 61.707 57.942 62.109 58.482 63.074 
58.923 c 63.891 59.294 64.559 59.814 64.559 60.079 c 64.559 60.868 
64.02 60.634 62.398 59.13 c 61.551 58.345 60.402 57.7 59.852 57.7 c 
58.176 57.7 58.719 58.567 60.887 59.353 c 62.012 59.759 62.805 60.216 
62.652 60.372 c 62.496 60.524 61.77 60.329 61.039 59.935 c 60.305 
59.544 57.773 59.224 55.418 59.228 c 53.059 59.232 52.094 59.134 53.273 
59.005 c 54.453 58.88 55.418 58.532 55.418 58.235 c 55.418 57.942 
56.125 57.696 56.988 57.692 c 59.078 57.681 60.445 56.857 59.18 56.368 
c 58.164 55.982 57.941 54.841 58.879 54.841 c 59.211 54.841 59.344 
55.067 59.172 55.345 c h
14.688 55.759 m 14.496 55.95 14.004 55.97 13.59 55.806 c 13.133 55.622 
13.27 55.485 13.938 55.458 c 14.539 55.435 14.875 55.571 14.688 55.759 
c h
49.703 55.95 m 49.703 56.247 49.422 56.661 49.078 56.872 c 48.738 
57.083 48.586 57.743 48.742 58.337 c 48.918 59.017 48.727 59.415 48.219 
59.415 c 47.68 59.415 47.414 58.751 47.414 57.415 c 47.414 55.794 
47.633 55.415 48.559 55.415 c 49.188 55.415 49.703 55.657 49.703 55.95 
c h
51.176 57.056 m 51.004 57.333 51.5 57.556 52.273 57.556 c 53.047 57.556 
53.543 57.337 53.375 57.064 c 53.207 56.794 53.492 56.732 54.004 56.931 
c 54.754 57.216 54.789 57.384 54.18 57.771 c 53.059 58.482 51.176 
58.376 50.352 57.556 c 49.777 56.985 49.715 57.067 50.039 57.985 c 
50.355 58.888 50.289 58.989 49.723 58.466 c 48.871 57.681 49.406 56.556 
50.625 56.556 c 51.098 56.556 51.344 56.782 51.176 57.056 c h
43.797 57.985 m 43.797 58.458 43.582 58.845 43.32 58.845 c 42.75 58.845 
42.691 58.044 43.223 57.509 c 43.754 56.982 43.797 57.017 43.797 57.985 
c h
46.66 58.646 m 46.492 58.814 45.891 58.649 45.316 58.282 c 44.387 
57.689 44.383 57.649 45.273 57.927 c 45.84 58.103 46.293 57.935 46.316 
57.54 c 46.348 57.048 46.449 57.064 46.664 57.595 c 46.828 58.005 
46.828 58.478 46.66 58.646 c h
40.129 58.079 m 39.734 58.235 39.094 58.235 38.699 58.079 c 38.309 
57.919 38.629 57.79 39.414 57.79 c 40.199 57.79 40.523 57.919 40.129 
58.079 c h
60.141 62.321 m 59.918 63.177 59.703 63.31 59.379 62.786 c 59.051 
62.251 58.734 62.224 58.172 62.689 c 57.609 63.157 57.125 63.11 56.305 
62.509 c 55.695 62.064 55.453 61.7 55.766 61.7 c 56.074 61.7 56.641 
62.009 57.016 62.388 c 57.551 62.919 57.703 62.857 57.703 62.103 c 
57.703 61.454 58.164 61.13 59.078 61.13 c 60.191 61.13 60.395 61.357 
60.141 62.321 c h
48.059 68.138 m 47.492 68.7 47.426 68.634 47.738 67.821 c 47.953 67.255 
48.273 66.939 48.449 67.114 c 48.625 67.29 48.449 67.751 48.059 68.138 
c h
5.52 35.782 m 4.734 36.567 5.141 37.778 6.125 37.591 c 6.676 37.485 
7.125 37.036 7.125 36.595 c 7.125 35.692 6.117 35.181 5.52 35.782 c h
0.09 38.306 m 0.227 38.72 0.676 39.169 1.09 39.306 c 1.52 39.45 1.73 
39.235 1.59 38.806 c 1.453 38.392 1 37.942 0.59 37.806 c 0.16 37.661 
-0.055 37.876 0.09 38.306 c h
50.34 42.747 m 49.633 43.739 49.312 44.845 49.512 45.603 c 49.938 
47.235 50.512 47.169 51.324 45.388 c 51.688 44.587 52.309 43.978 52.699 
44.028 c 54.625 44.278 55.051 43.978 53.953 43.146 c 52.895 42.345 
52.914 42.306 54.449 42.29 c 55.371 42.278 55.906 42.028 55.703 41.7 c 
55.508 41.384 54.48 41.126 53.422 41.126 c 51.957 41.126 51.215 41.517 
50.34 42.747 c h
52.219 42.985 m 51.328 44.54 50.691 45.099 50.168 44.778 c 49.863 
44.591 50.082 43.974 50.664 43.388 c 51.859 42.181 52.82 41.931 52.219 
42.985 c h
70.848 42.841 m 70.848 43.157 71.102 43.411 71.418 43.411 c 71.73 
43.411 71.988 43.157 71.988 42.841 c 71.988 42.528 71.73 42.271 71.418 
42.271 c 71.102 42.271 70.848 42.528 70.848 42.841 c h
59.703 44.556 m 59.895 44.872 60.297 45.126 60.594 45.126 c 60.891 
45.126 61.133 44.872 61.133 44.556 c 61.133 44.243 60.73 43.985 60.238 
43.985 c 59.75 43.985 59.508 44.243 59.703 44.556 c h
66.418 44.364 m 64.961 44.95 65.77 45.7 67.848 45.681 c 69.855 45.665 
69.918 45.61 68.879 44.825 c 67.707 43.935 67.547 43.907 66.418 44.364 
c h
64.703 47.552 m 64.836 47.958 66.023 48.298 67.465 48.349 c 68.914 
48.396 69.379 48.298 68.559 48.122 c 67.133 47.81 l 68.559 47.384 l 
69.68 47.048 69.395 46.942 67.227 46.899 c 65.262 46.857 64.531 47.048 
64.703 47.552 c h
4.27 49.126 m 4.461 49.442 4.863 49.7 5.16 49.7 c 5.453 49.7 5.695 
49.442 5.695 49.126 c 5.695 48.814 5.297 48.556 4.805 48.556 c 4.316 
48.556 4.074 48.814 4.27 49.126 c h
42.797 51.841 m 42.77 52.392 42.699 53.548 42.637 54.415 c 42.57 55.278 
42.711 55.985 42.945 55.985 c 43.789 55.985 44.578 53.696 44.223 52.282 
c 43.812 50.638 42.867 50.345 42.797 51.841 c h
18.688 55.485 m 19.078 55.876 19.539 56.052 19.715 55.876 c 19.891 55.7 
19.57 55.38 19.008 55.165 c 18.195 54.857 18.129 54.919 18.688 55.485 c 
h
22.164 57.521 m 22.574 57.685 23.066 57.665 23.258 57.474 c 23.449 
57.282 23.109 57.149 22.508 57.173 c 21.844 57.2 21.707 57.337 22.164 
57.521 c h
28.984 58.079 m 29.379 58.235 30.02 58.235 30.414 58.079 c 30.805 
57.919 30.484 57.79 29.699 57.79 c 28.914 57.79 28.594 57.919 28.984 
58.079 c h
20.27 58.845 m 20.074 59.157 19.145 59.415 18.203 59.415 c 17.105 
59.415 16.629 59.642 16.875 60.04 c 17.086 60.384 17.875 60.548 18.621 
60.403 c 19.371 60.263 19.984 60.38 19.984 60.669 c 19.984 60.958 20.27 
61.021 20.617 60.806 c 21.074 60.524 21.066 60.302 20.59 60.009 c 20.23 
59.786 20.91 59.587 22.102 59.571 c 23.969 59.544 24.07 59.603 22.84 
59.993 c 22.055 60.239 21.797 60.482 22.27 60.528 c 22.742 60.571 
22.355 60.966 21.414 61.399 c 19.75 62.169 19.738 62.204 20.984 62.583 
c 21.691 62.802 22.27 63.204 22.27 63.482 c 22.27 63.759 22.684 63.985 
23.188 63.985 c 23.77 63.985 23.984 63.673 23.777 63.13 c 23.523 62.466 
23.906 62.271 25.465 62.271 c 26.664 62.271 27.336 62.505 27.129 62.845 
c 26.934 63.157 26.273 63.415 25.664 63.415 c 25.055 63.415 24.555 
63.634 24.555 63.899 c 24.555 64.165 26.523 64.353 28.93 64.314 c 
32.668 64.255 33.34 64.392 33.566 65.259 c 33.887 66.474 34.758 66.587 
35.188 65.47 c 35.605 64.38 37.508 63.931 37.508 64.923 c 37.508 65.349 
37.199 65.7 36.816 65.7 c 36.438 65.7 35.805 66.087 35.414 66.56 c 
34.812 67.282 34.938 67.415 36.238 67.415 c 37.082 67.415 38.223 67.177 
38.77 66.884 c 39.492 66.497 39.926 66.614 40.359 67.314 c 40.895 
68.169 40.645 68.263 38.043 68.177 c 36.441 68.126 34.66 67.899 34.09 
67.673 c 33.523 67.45 32.492 67.521 31.805 67.829 c 30.297 68.513 
28.426 67.978 29.012 67.032 c 29.238 66.665 30.195 66.196 31.133 65.993 
c 32.742 65.646 32.777 65.677 31.758 66.501 c 31.16 66.985 30.414 67.22 
30.098 67.024 c 29.777 66.825 29.699 66.95 29.918 67.306 c 30.363 
68.028 33.129 67.044 33.129 66.161 c 33.129 65.118 31.152 64.974 29.535 
65.903 c 28.234 66.649 27.664 66.72 27.047 66.208 c 26.434 65.696 
26.023 65.739 25.258 66.403 c 24.715 66.88 23.914 67.138 23.477 66.982 
c 23.016 66.817 22.84 66.95 23.059 67.302 c 23.262 67.634 23.188 68.06 
22.891 68.243 c 22.594 68.427 22.199 68.333 22.016 68.036 c 21.832 
67.739 21.957 67.325 22.293 67.114 c 22.691 66.868 22.562 66.482 21.926 
66.013 c 21.301 65.56 21.082 64.927 21.328 64.29 c 21.617 63.536 21.488 
63.372 20.816 63.63 c 20.312 63.825 20.074 63.732 20.27 63.419 c 20.48 
63.075 19.883 62.985 18.727 63.185 c 17.281 63.435 17.043 63.368 17.699 
62.892 c 18.355 62.415 18.145 62.353 16.781 62.614 c 15.461 62.864 
14.914 62.72 14.656 62.04 c 14.398 61.376 14.648 61.126 15.574 61.11 c 
16.812 61.095 16.816 61.071 15.73 60.255 c 15.121 59.794 14.094 59.439 
13.445 59.47 c 12.449 59.521 12.488 59.591 13.691 59.923 c 14.621 
60.185 14.879 60.466 14.43 60.743 c 14.055 60.974 13.895 61.556 14.078 
62.028 c 14.285 62.571 14.117 62.829 13.625 62.724 c 12.453 62.478 
11.949 61.505 12.727 61.001 c 13.586 60.442 11.395 60.708 10.492 61.274 
c 9.547 61.864 9.039 61.067 9.785 60.169 c 10.141 59.739 10.266 59.224 
10.062 59.021 c 9.527 58.485 9.172 59.013 8.996 60.595 c 8.859 61.806 
9.055 61.97 10.48 61.868 c 11.383 61.806 11.969 61.903 11.785 62.091 c 
11.113 62.759 15.574 65.7 17.262 65.7 c 18.406 65.7 19.473 66.259 
20.555 67.415 c 22.156 69.13 l 31.609 69.13 l 40.176 69.13 42.801 
68.735 41.129 67.7 c 40.805 67.501 40.695 67.083 40.883 66.778 c 41.105 
66.419 41.492 66.435 41.965 66.825 c 42.367 67.161 43.16 67.259 43.723 
67.044 c 44.383 66.79 44.609 66.868 44.363 67.267 c 44.121 67.661 44.41 
67.771 45.176 67.567 c 46.086 67.329 46.188 67.142 45.605 66.763 c 
44.98 66.36 45 66.169 45.699 65.708 c 46.402 65.251 46.328 65.146 
45.305 65.138 c 44.617 65.134 43.902 64.884 43.715 64.579 c 43.527 
64.274 44.086 64.044 44.965 64.06 c 47.309 64.107 50.438 63.204 50.707 
62.399 c 50.867 61.915 50.098 61.696 48.176 61.692 c 46.453 61.685 
45.699 61.501 46.176 61.2 c 46.652 60.899 45.484 60.595 43.031 60.388 c 
40.887 60.208 38.484 59.907 37.699 59.72 c 36.332 59.396 36.328 59.407 
37.559 59.95 c 38.266 60.263 38.844 60.673 38.844 60.86 c 38.844 61.044 
38.613 61.056 38.336 60.884 c 37.215 60.189 30.27 59.868 30.27 60.509 c 
30.27 60.903 30.879 61.032 31.844 60.845 c 33.156 60.591 33.227 60.63 
32.27 61.091 c 31.484 61.47 32.863 61.564 36.668 61.392 c 40.012 61.239 
42.348 61.364 42.562 61.708 c 42.789 62.075 43.352 62.04 44.164 61.61 c 
45.297 61.005 45.34 61.032 44.629 61.892 c 43.934 62.739 44.016 62.845 
45.379 62.845 c 46.293 62.845 46.762 63.083 46.543 63.439 c 46.34 
63.767 45.746 63.896 45.219 63.728 c 44.691 63.56 43.449 63.329 42.457 
63.216 c 40.996 63.044 40.691 63.192 40.844 63.997 c 40.984 64.712 
40.656 64.985 39.664 64.985 c 38.91 64.985 38.43 64.763 38.602 64.485 c 
38.77 64.212 39.297 63.985 39.77 63.985 c 40.238 63.985 40.477 63.743 
40.293 63.45 c 40.109 63.153 40.418 62.634 40.973 62.29 c 41.855 61.751 
41.801 61.692 40.559 61.841 c 39.773 61.935 39.176 62.274 39.23 62.595 
c 39.371 63.372 37.383 63.485 35.582 62.798 c 34.66 62.446 33.895 
62.446 33.473 62.794 c 33.109 63.095 31.406 63.489 29.684 63.665 c 
26.242 64.024 26.402 63.728 29.977 63.126 c 32.105 62.767 32.184 62.689 
31.156 61.935 c 30.547 61.493 29.469 61.13 28.758 61.13 c 28.047 61.13 
26.816 60.833 26.02 60.47 c 24.684 59.86 24.652 59.755 25.566 59.06 c 
26.426 58.407 26.164 58.306 23.59 58.29 c 21.957 58.278 20.465 58.528 
20.27 58.845 c h
16.094 63.939 m 16.324 63.255 18.27 63.86 18.27 64.618 c 18.27 65.567 
15.707 65.11 14.27 63.907 c 12.84 62.708 l 14.371 63.618 l 15.305 
64.173 15.973 64.298 16.094 63.939 c h
35.699 63.415 m 36.652 63.825 36.527 63.911 34.953 63.946 c 33.828 
63.97 33.203 63.755 33.414 63.415 c 33.824 62.747 34.148 62.747 35.699 
63.415 c h
42.844 63.985 m 42.844 64.302 42.57 64.56 42.238 64.56 c 41.906 64.56 
41.793 64.302 41.984 63.985 c 42.18 63.673 42.453 63.415 42.59 63.415 c 
42.73 63.415 42.844 63.673 42.844 63.985 c h
43.844 65.845 m 43.711 66.235 43.262 66.56 42.844 66.56 c 42.426 66.56 
41.973 66.235 41.844 65.845 c 41.703 65.419 42.105 65.13 42.844 65.13 c 
43.578 65.13 43.984 65.419 43.844 65.845 c h
21.199 66.7 m 21.91 67.607 21.891 67.626 20.984 66.915 c 20.434 66.485 
19.984 66.036 19.984 65.915 c 19.984 65.446 20.453 65.751 21.199 66.7 c 
h
27.129 66.845 m 27.32 67.157 27.078 67.415 26.59 67.415 c 26.102 67.415 
25.699 67.157 25.699 66.845 c 25.699 66.528 25.941 66.271 26.238 66.271 
c 26.531 66.271 26.934 66.528 27.129 66.845 c h
27.27 68.38 m 26.719 68.524 25.82 68.524 25.27 68.38 c 24.719 68.235 
25.172 68.118 26.27 68.118 c 27.371 68.118 27.82 68.235 27.27 68.38 c h
10.672 59.607 m 10.508 60.024 10.738 60.368 11.18 60.368 c 11.621 
60.368 11.984 60.024 11.984 59.607 c 11.984 58.618 11.051 58.618 10.672 
59.607 c h
26.27 59.985 m 26.742 60.29 27.383 60.54 27.699 60.54 c 28.012 60.54 
27.883 60.29 27.414 59.985 c 26.941 59.681 26.301 59.431 25.984 59.431 
c 25.672 59.431 25.797 59.681 26.27 59.985 c h
48.449 60.946 m 48.863 61.114 49.355 61.095 49.547 60.903 c 49.734 
60.712 49.398 60.579 48.797 60.603 c 48.129 60.63 47.996 60.767 48.449 
60.946 c h
21.699 65.118 m 21.699 65.751 24.438 66.579 24.926 66.095 c 25.098 
65.919 25.07 65.501 24.863 65.169 c 24.391 64.403 21.699 64.36 21.699 
65.118 c h
21.699 65.118 m f
Q Q
showpage
%%Trailer
%%EOF
