v 20110115 2
P 100 8100 400 8100 1 0 0
{
T 300 8150 5 8 1 1 0 6 1
pinnumber=1
T 300 8050 5 8 0 1 0 8 1
pinseq=1
T 450 8100 9 8 1 1 0 0 1
pinlabel=(PCINT8/XCK0)PB0
T 450 8100 5 8 0 1 0 2 1
pintype=io
}
P 100 7700 400 7700 1 0 0
{
T 300 7750 5 8 1 1 0 6 1
pinnumber=2
T 300 7650 5 8 0 1 0 8 1
pinseq=2
T 450 7700 9 8 1 1 0 0 1
pinlabel=(PCINT9/CLKO)PB1
T 450 7700 5 8 0 1 0 2 1
pintype=io
}
P 100 7300 400 7300 1 0 0
{
T 300 7350 5 8 1 1 0 6 1
pinnumber=3
T 300 7250 5 8 0 1 0 8 1
pinseq=3
T 450 7300 9 8 1 1 0 0 1
pinlabel=(PCINT10/INT2)PB2
T 450 7300 5 8 0 1 0 2 1
pintype=io
}
P 100 6900 400 6900 1 0 0
{
T 300 6950 5 8 1 1 0 6 1
pinnumber=4
T 300 6850 5 8 0 1 0 8 1
pinseq=4
T 450 6900 9 8 1 1 0 0 1
pinlabel=(PCINT11/OC0A)PB3
T 450 6900 5 8 0 1 0 2 1
pintype=io
}
P 100 6500 400 6500 1 0 0
{
T 300 6550 5 8 1 1 0 6 1
pinnumber=5
T 300 6450 5 8 0 1 0 8 1
pinseq=5
T 450 6500 9 8 1 1 0 0 1
pinlabel=(PCINT12/OC0B)PB4
T 450 6500 5 8 0 1 0 2 1
pintype=io
}
P 100 6100 400 6100 1 0 0
{
T 300 6150 5 8 1 1 0 6 1
pinnumber=6
T 300 6050 5 8 0 1 0 8 1
pinseq=6
T 450 6100 9 8 1 1 0 0 1
pinlabel=(PCINT13/MOSI)PB5
T 450 6100 5 8 0 1 0 2 1
pintype=io
}
P 100 5700 400 5700 1 0 0
{
T 300 5750 5 8 1 1 0 6 1
pinnumber=7
T 300 5650 5 8 0 1 0 8 1
pinseq=7
T 450 5700 9 8 1 1 0 0 1
pinlabel=(PCINT14/MISO)PB6
T 450 5700 5 8 0 1 0 2 1
pintype=io
}
P 100 5300 400 5300 1 0 0
{
T 300 5350 5 8 1 1 0 6 1
pinnumber=8
T 300 5250 5 8 0 1 0 8 1
pinseq=8
T 450 5300 9 8 1 1 0 0 1
pinlabel=(PCINT15/SCK)PB7
T 450 5300 5 8 0 1 0 2 1
pintype=io
}
P 100 4900 300 4900 1 0 0
{
T 300 4950 5 8 1 1 0 6 1
pinnumber=9
T 300 4850 5 8 0 1 0 8 1
pinseq=9
T 450 4900 9 8 1 1 0 0 1
pinlabel=\_RESET\_
T 450 4900 5 8 0 1 0 2 1
pintype=in
}
V 350 4900 50 6 0 0 0 -1 -1 0 -1 -1 -1 -1 -1
P 100 4500 400 4500 1 0 0
{
T 300 4550 5 8 1 1 0 6 1
pinnumber=10
T 300 4450 5 8 0 1 0 8 1
pinseq=10
T 450 4500 9 8 1 1 0 0 1
pinlabel=VCC
T 450 4500 5 8 0 1 0 2 1
pintype=pwr
}
P 100 4100 400 4100 1 0 0
{
T 300 4150 5 8 1 1 0 6 1
pinnumber=11
T 300 4050 5 8 0 1 0 8 1
pinseq=11
T 450 4100 9 8 1 1 0 0 1
pinlabel=GND
T 450 4100 5 8 0 1 0 2 1
pintype=pwr
}
P 100 3700 400 3700 1 0 0
{
T 300 3750 5 8 1 1 0 6 1
pinnumber=12
T 300 3650 5 8 0 1 0 8 1
pinseq=12
T 525 3700 9 8 1 1 0 0 1
pinlabel=XTAL2
T 525 3700 5 8 0 1 0 2 1
pintype=out
}
L 500 3700 400 3775 3 0 0 0 -1 -1
L 500 3700 400 3625 3 0 0 0 -1 -1
P 100 3300 400 3300 1 0 0
{
T 300 3350 5 8 1 1 0 6 1
pinnumber=13
T 300 3250 5 8 0 1 0 8 1
pinseq=13
T 525 3300 9 8 1 1 0 0 1
pinlabel=XTAL1
T 525 3300 5 8 0 1 0 2 1
pintype=out
}
L 500 3300 400 3375 3 0 0 0 -1 -1
L 500 3300 400 3225 3 0 0 0 -1 -1
P 100 2900 400 2900 1 0 0
{
T 300 2950 5 8 1 1 0 6 1
pinnumber=14
T 300 2850 5 8 0 1 0 8 1
pinseq=14
T 450 2900 9 8 1 1 0 0 1
pinlabel=(PCINT24/RXD0)PD0
T 450 2900 5 8 0 1 0 2 1
pintype=in
}
P 100 2500 400 2500 1 0 0
{
T 300 2550 5 8 1 1 0 6 1
pinnumber=15
T 300 2450 5 8 0 1 0 8 1
pinseq=15
T 450 2500 9 8 1 1 0 0 1
pinlabel=(PCINT25/TXD0)PD1
T 450 2500 5 8 0 1 0 2 1
pintype=out
}
P 100 2100 400 2100 1 0 0
{
T 300 2150 5 8 1 1 0 6 1
pinnumber=16
T 300 2050 5 8 0 1 0 8 1
pinseq=16
T 450 2100 9 8 1 1 0 0 1
pinlabel=(PCINT26/RXD1)PD2
T 450 2100 5 8 0 1 0 2 1
pintype=in
}
P 100 1700 400 1700 1 0 0
{
T 300 1750 5 8 1 1 0 6 1
pinnumber=17
T 300 1650 5 8 0 1 0 8 1
pinseq=17
T 450 1700 9 8 1 1 0 0 1
pinlabel=(PCINT27/TXD1)PD3
T 450 1700 5 8 0 1 0 2 1
pintype=out
}
P 100 1300 400 1300 1 0 0
{
T 300 1350 5 8 1 1 0 6 1
pinnumber=18
T 300 1250 5 8 0 1 0 8 1
pinseq=18
T 450 1300 9 8 1 1 0 0 1
pinlabel=(PCINT28/XCK1)PD4
T 450 1300 5 8 0 1 0 2 1
pintype=io
}
P 100 900 400 900 1 0 0
{
T 300 950 5 8 1 1 0 6 1
pinnumber=19
T 300 850 5 8 0 1 0 8 1
pinseq=19
T 450 900 9 8 1 1 0 0 1
pinlabel=(PCINT29/OC1A)PD5
T 450 900 5 8 0 1 0 2 1
pintype=io
}
P 100 500 400 500 1 0 0
{
T 300 550 5 8 1 1 0 6 1
pinnumber=20
T 300 450 5 8 0 1 0 8 1
pinseq=20
T 450 500 9 8 1 1 0 0 1
pinlabel=(PCINT30/OC2B)PD6
T 450 500 5 8 0 1 0 2 1
pintype=io
}
P 4200 8100 3900 8100 1 0 0
{
T 4000 8150 5 8 1 1 0 0 1
pinnumber=40
T 4000 8050 5 8 0 1 0 2 1
pinseq=40
T 3850 8100 9 8 1 1 0 6 1
pinlabel=PA0(ADC0/PCINT0)
T 3850 8100 5 8 0 1 0 8 1
pintype=io
}
P 4200 7700 3900 7700 1 0 0
{
T 4000 7750 5 8 1 1 0 0 1
pinnumber=39
T 4000 7650 5 8 0 1 0 2 1
pinseq=39
T 3850 7700 9 8 1 1 0 6 1
pinlabel=PA1(ADC1/PCINT1)
T 3850 7700 5 8 0 1 0 8 1
pintype=io
}
P 4200 7300 3900 7300 1 0 0
{
T 4000 7350 5 8 1 1 0 0 1
pinnumber=38
T 4000 7250 5 8 0 1 0 2 1
pinseq=38
T 3850 7300 9 8 1 1 0 6 1
pinlabel=PA2(ADC2/PCINT2)
T 3850 7300 5 8 0 1 0 8 1
pintype=io
}
P 4200 6900 3900 6900 1 0 0
{
T 4000 6950 5 8 1 1 0 0 1
pinnumber=37
T 4000 6850 5 8 0 1 0 2 1
pinseq=37
T 3850 6900 9 8 1 1 0 6 1
pinlabel=PA3(ADC3/PCINT3)
T 3850 6900 5 8 0 1 0 8 1
pintype=io
}
P 4200 6500 3900 6500 1 0 0
{
T 4000 6550 5 8 1 1 0 0 1
pinnumber=36
T 4000 6450 5 8 0 1 0 2 1
pinseq=36
T 3850 6500 9 8 1 1 0 6 1
pinlabel=PA4(ADC4/PCINT4)
T 3850 6500 5 8 0 1 0 8 1
pintype=io
}
P 4200 6100 3900 6100 1 0 0
{
T 4000 6150 5 8 1 1 0 0 1
pinnumber=35
T 4000 6050 5 8 0 1 0 2 1
pinseq=35
T 3850 6100 9 8 1 1 0 6 1
pinlabel=PA5(ADC5/PCINT5)
T 3850 6100 5 8 0 1 0 8 1
pintype=io
}
P 4200 5700 3900 5700 1 0 0
{
T 4000 5750 5 8 1 1 0 0 1
pinnumber=34
T 4000 5650 5 8 0 1 0 2 1
pinseq=34
T 3850 5700 9 8 1 1 0 6 1
pinlabel=PA6(ADC6/PCINT6)
T 3850 5700 5 8 0 1 0 8 1
pintype=io
}
P 4200 5300 3900 5300 1 0 0
{
T 4000 5350 5 8 1 1 0 0 1
pinnumber=33
T 4000 5250 5 8 0 1 0 2 1
pinseq=33
T 3850 5300 9 8 1 1 0 6 1
pinlabel=PA7(ADC7/PCINT7)
T 3850 5300 5 8 0 1 0 8 1
pintype=io
}
P 4200 4900 3900 4900 1 0 0
{
T 4000 4950 5 8 1 1 0 0 1
pinnumber=32
T 4000 4850 5 8 0 1 0 2 1
pinseq=32
T 3850 4900 9 8 1 1 0 6 1
pinlabel=AREF
T 3850 4900 5 8 0 1 0 8 1
pintype=pas
}
P 4200 4500 3900 4500 1 0 0
{
T 4000 4550 5 8 1 1 0 0 1
pinnumber=31
T 4000 4450 5 8 0 1 0 2 1
pinseq=31
T 3850 4500 9 8 1 1 0 6 1
pinlabel=GND
T 3850 4500 5 8 0 1 0 8 1
pintype=pwr
}
P 4200 4100 3900 4100 1 0 0
{
T 4000 4150 5 8 1 1 0 0 1
pinnumber=30
T 4000 4050 5 8 0 1 0 2 1
pinseq=30
T 3850 4100 9 8 1 1 0 6 1
pinlabel=AVCC
T 3850 4100 5 8 0 1 0 8 1
pintype=pwr
}
P 4200 3700 3900 3700 1 0 0
{
T 4000 3750 5 8 1 1 0 0 1
pinnumber=29
T 4000 3650 5 8 0 1 0 2 1
pinseq=29
T 3850 3700 9 8 1 1 0 6 1
pinlabel=PC7(TOSC2/PCINT23)
T 3850 3700 5 8 0 1 0 8 1
pintype=io
}
P 4200 3300 3900 3300 1 0 0
{
T 4000 3350 5 8 1 1 0 0 1
pinnumber=28
T 4000 3250 5 8 0 1 0 2 1
pinseq=28
T 3850 3300 9 8 1 1 0 6 1
pinlabel=PC6(TOSC1/PCINT22)
T 3850 3300 5 8 0 1 0 8 1
pintype=io
}
P 4200 2900 3900 2900 1 0 0
{
T 4000 2950 5 8 1 1 0 0 1
pinnumber=27
T 4000 2850 5 8 0 1 0 2 1
pinseq=27
T 3850 2900 9 8 1 1 0 6 1
pinlabel=PC5(TDI/PCINT21)
T 3850 2900 5 8 0 1 0 8 1
pintype=io
}
P 4200 2500 3900 2500 1 0 0
{
T 4000 2550 5 8 1 1 0 0 1
pinnumber=26
T 4000 2450 5 8 0 1 0 2 1
pinseq=26
T 3850 2500 9 8 1 1 0 6 1
pinlabel=PC4(TDO/PCINT20)
T 3850 2500 5 8 0 1 0 8 1
pintype=io
}
P 4200 2100 3900 2100 1 0 0
{
T 4000 2150 5 8 1 1 0 0 1
pinnumber=25
T 4000 2050 5 8 0 1 0 2 1
pinseq=25
T 3850 2100 9 8 1 1 0 6 1
pinlabel=PC3(TMS/PCINT19)
T 3850 2100 5 8 0 1 0 8 1
pintype=io
}
P 4200 1700 3900 1700 1 0 0
{
T 4000 1750 5 8 1 1 0 0 1
pinnumber=24
T 4000 1650 5 8 0 1 0 2 1
pinseq=24
T 3850 1700 9 8 1 1 0 6 1
pinlabel=PC2(TCK/PCINT18)
T 3850 1700 5 8 0 1 0 8 1
pintype=io
}
P 4200 1300 3900 1300 1 0 0
{
T 4000 1350 5 8 1 1 0 0 1
pinnumber=23
T 4000 1250 5 8 0 1 0 2 1
pinseq=23
T 3850 1300 9 8 1 1 0 6 1
pinlabel=PC1(SDA/PCINT17)
T 3850 1300 5 8 0 1 0 8 1
pintype=io
}
P 4200 900 3900 900 1 0 0
{
T 4000 950 5 8 1 1 0 0 1
pinnumber=22
T 4000 850 5 8 0 1 0 2 1
pinseq=22
T 3850 900 9 8 1 1 0 6 1
pinlabel=PC0(SCL/PCINT16)
T 3850 900 5 8 0 1 0 8 1
pintype=io
}
P 4200 500 3900 500 1 0 0
{
T 4000 550 5 8 1 1 0 0 1
pinnumber=21
T 4000 450 5 8 0 1 0 2 1
pinseq=21
T 3850 500 9 8 1 1 0 6 1
pinlabel=PD7(OC2A/PCINT31)
T 3850 500 5 8 0 1 0 8 1
pintype=io
}
B 400 100 3500 8400 3 0 0 0 -1 -1 0 -1 -1 -1 -1 -1
T 3900 8600 8 10 1 1 0 6 1
refdes=U?
T 400 8600 9 10 1 0 0 0 1
ATMEGA164P/324P/644P
T 400 8800 5 10 0 0 0 0 1
device=ATMEGA164P
T 400 9000 5 10 0 0 0 0 1
footprint=DIP40
T 400 9200 5 10 0 0 0 0 1
author=Perry Hargrave
T 400 9400 5 10 0 0 0 0 1
description=Atmel 8-bit microprocessor
T 400 9600 5 10 0 0 0 0 1
numslots=0
