v 20130209 1
P 100 4100 400 4100 1 0 0
{
T 300 4150 5 8 1 1 0 6 1
pinnumber=1
T 300 4050 5 8 0 1 0 8 1
pinseq=1
T 450 4100 9 8 1 1 0 0 1
pinlabel=TE
T 450 4100 5 8 0 1 0 2 1
pintype=io
}
P 100 3700 400 3700 1 0 0
{
T 300 3750 5 8 1 1 0 6 1
pinnumber=2
T 300 3650 5 8 0 1 0 8 1
pinseq=2
T 450 3700 9 8 1 1 0 0 1
pinlabel=B1
T 450 3700 5 8 0 1 0 2 1
pintype=io
}
P 100 3300 400 3300 1 0 0
{
T 300 3350 5 8 1 1 0 6 1
pinnumber=3
T 300 3250 5 8 0 1 0 8 1
pinseq=3
T 450 3300 9 8 1 1 0 0 1
pinlabel=B2
T 450 3300 5 8 0 1 0 2 1
pintype=io
}
P 100 2900 400 2900 1 0 0
{
T 300 2950 5 8 1 1 0 6 1
pinnumber=4
T 300 2850 5 8 0 1 0 8 1
pinseq=4
T 450 2900 9 8 1 1 0 0 1
pinlabel=B3
T 450 2900 5 8 0 1 0 2 1
pintype=io
}
P 100 2500 400 2500 1 0 0
{
T 300 2550 5 8 1 1 0 6 1
pinnumber=5
T 300 2450 5 8 0 1 0 8 1
pinseq=5
T 450 2500 9 8 1 1 0 0 1
pinlabel=B4
T 450 2500 5 8 0 1 0 2 1
pintype=io
}
P 100 2100 400 2100 1 0 0
{
T 300 2150 5 8 1 1 0 6 1
pinnumber=6
T 300 2050 5 8 0 1 0 8 1
pinseq=6
T 450 2100 9 8 1 1 0 0 1
pinlabel=B5
T 450 2100 5 8 0 1 0 2 1
pintype=io
}
P 100 1700 400 1700 1 0 0
{
T 300 1750 5 8 1 1 0 6 1
pinnumber=7
T 300 1650 5 8 0 1 0 8 1
pinseq=7
T 450 1700 9 8 1 1 0 0 1
pinlabel=B6
T 450 1700 5 8 0 1 0 2 1
pintype=io
}
P 100 1300 400 1300 1 0 0
{
T 300 1350 5 8 1 1 0 6 1
pinnumber=8
T 300 1250 5 8 0 1 0 8 1
pinseq=8
T 450 1300 9 8 1 1 0 0 1
pinlabel=B7
T 450 1300 5 8 0 1 0 2 1
pintype=io
}
P 100 900 400 900 1 0 0
{
T 300 950 5 8 1 1 0 6 1
pinnumber=9
T 300 850 5 8 0 1 0 8 1
pinseq=9
T 450 900 9 8 1 1 0 0 1
pinlabel=B8
T 450 900 5 8 0 1 0 2 1
pintype=io
}
P 100 500 400 500 1 0 0
{
T 300 550 5 8 1 1 0 6 1
pinnumber=10
T 300 450 5 8 0 1 0 8 1
pinseq=10
T 450 500 9 8 1 1 0 0 1
pinlabel=GND
T 450 500 5 8 0 1 0 2 1
pintype=pwr
}
P 2100 4100 1800 4100 1 0 0
{
T 1900 4150 5 8 1 1 0 0 1
pinnumber=20
T 1900 4050 5 8 0 1 0 2 1
pinseq=11
T 1750 4100 9 8 1 1 0 6 1
pinlabel=VCC
T 1750 4100 5 8 0 1 0 8 1
pintype=pwr
}
P 2100 3700 1800 3700 1 0 0
{
T 1900 3750 5 8 1 1 0 0 1
pinnumber=19
T 1900 3650 5 8 0 1 0 2 1
pinseq=12
T 1750 3700 9 8 1 1 0 6 1
pinlabel=D1
T 1750 3700 5 8 0 1 0 8 1
pintype=io
}
P 2100 3300 1800 3300 1 0 0
{
T 1900 3350 5 8 1 1 0 0 1
pinnumber=18
T 1900 3250 5 8 0 1 0 2 1
pinseq=13
T 1750 3300 9 8 1 1 0 6 1
pinlabel=D2
T 1750 3300 5 8 0 1 0 8 1
pintype=io
}
P 2100 2900 1800 2900 1 0 0
{
T 1900 2950 5 8 1 1 0 0 1
pinnumber=17
T 1900 2850 5 8 0 1 0 2 1
pinseq=14
T 1750 2900 9 8 1 1 0 6 1
pinlabel=D3
T 1750 2900 5 8 0 1 0 8 1
pintype=io
}
P 2100 2500 1800 2500 1 0 0
{
T 1900 2550 5 8 1 1 0 0 1
pinnumber=16
T 1900 2450 5 8 0 1 0 2 1
pinseq=15
T 1750 2500 9 8 1 1 0 6 1
pinlabel=D4
T 1750 2500 5 8 0 1 0 8 1
pintype=io
}
P 2100 2100 1800 2100 1 0 0
{
T 1900 2150 5 8 1 1 0 0 1
pinnumber=15
T 1900 2050 5 8 0 1 0 2 1
pinseq=16
T 1750 2100 9 8 1 1 0 6 1
pinlabel=D5
T 1750 2100 5 8 0 1 0 8 1
pintype=io
}
P 2100 1700 1800 1700 1 0 0
{
T 1900 1750 5 8 1 1 0 0 1
pinnumber=14
T 1900 1650 5 8 0 1 0 2 1
pinseq=17
T 1750 1700 9 8 1 1 0 6 1
pinlabel=D6
T 1750 1700 5 8 0 1 0 8 1
pintype=io
}
P 2100 1300 1800 1300 1 0 0
{
T 1900 1350 5 8 1 1 0 0 1
pinnumber=13
T 1900 1250 5 8 0 1 0 2 1
pinseq=18
T 1750 1300 9 8 1 1 0 6 1
pinlabel=D7
T 1750 1300 5 8 0 1 0 8 1
pintype=io
}
P 2100 900 1800 900 1 0 0
{
T 1900 950 5 8 1 1 0 0 1
pinnumber=12
T 1900 850 5 8 0 1 0 2 1
pinseq=19
T 1750 900 9 8 1 1 0 6 1
pinlabel=D8
T 1750 900 5 8 0 1 0 8 1
pintype=io
}
P 2100 500 1800 500 1 0 0
{
T 1900 550 5 8 1 1 0 0 1
pinnumber=11
T 1900 450 5 8 0 1 0 2 1
pinseq=20
T 1750 500 9 8 1 1 0 6 1
pinlabel=PE
T 1750 500 5 8 0 1 0 8 1
pintype=io
}
B 400 100 1400 4400 3 0 0 0 -1 -1 0 -1 -1 -1 -1 -1
T 1800 4600 8 10 1 1 0 6 1
refdes=U?
T 400 4600 9 10 1 0 0 0 1
SN75ALS160
T 400 4800 5 10 0 0 0 0 1
device=SN75ALS160
T 400 5000 5 10 0 0 0 0 1
footprint=DIP20
T 400 5200 5 10 0 0 0 0 1
author=Darryl Sokoloski
T 400 5400 5 10 0 0 0 0 1
description=OCTAL GENERALĆPURPOSE INTERFACE BUS TRANSCEIVERS
T 400 5600 5 10 0 0 0 0 1
numslots=0
